('/Users/michaeltreiman/TheBlackOfSpaceTestBranch/build/AsteroidRacer/out00-PYZ.pyz',
 [('pkg_resources',
   '/usr/local/lib/python3.6/site-packages/pkg_resources/__init__.py',
   'PYMODULE'),
  ('pkg_resources._vendor.appdirs',
   '/usr/local/lib/python3.6/site-packages/pkg_resources/_vendor/appdirs.py',
   'PYMODULE'),
  ('ctypes',
   '/usr/local/Cellar/python3/3.6.4/Frameworks/Python.framework/Versions/3.6/lib/python3.6/ctypes/__init__.py',
   'PYMODULE'),
  ('ctypes._endian',
   '/usr/local/Cellar/python3/3.6.4/Frameworks/Python.framework/Versions/3.6/lib/python3.6/ctypes/_endian.py',
   'PYMODULE'),
  ('pkg_resources._vendor.packaging.markers',
   '/usr/local/lib/python3.6/site-packages/pkg_resources/_vendor/packaging/markers.py',
   'PYMODULE'),
  ('pkg_resources._vendor.packaging.specifiers',
   '/usr/local/lib/python3.6/site-packages/pkg_resources/_vendor/packaging/specifiers.py',
   'PYMODULE'),
  ('pkg_resources._vendor.packaging._structures',
   '/usr/local/lib/python3.6/site-packages/pkg_resources/_vendor/packaging/_structures.py',
   'PYMODULE'),
  ('pkg_resources._vendor.packaging.__about__',
   '/usr/local/lib/python3.6/site-packages/pkg_resources/_vendor/packaging/__about__.py',
   'PYMODULE'),
  ('pkg_resources._vendor.packaging._compat',
   '/usr/local/lib/python3.6/site-packages/pkg_resources/_vendor/packaging/_compat.py',
   'PYMODULE'),
  ('pkg_resources._vendor.pyparsing',
   '/usr/local/lib/python3.6/site-packages/pkg_resources/_vendor/pyparsing.py',
   'PYMODULE'),
  ('uuid',
   '/usr/local/Cellar/python3/3.6.4/Frameworks/Python.framework/Versions/3.6/lib/python3.6/uuid.py',
   'PYMODULE'),
  ('ctypes.util',
   '/usr/local/Cellar/python3/3.6.4/Frameworks/Python.framework/Versions/3.6/lib/python3.6/ctypes/util.py',
   'PYMODULE'),
  ('ctypes.macholib.dyld',
   '/usr/local/Cellar/python3/3.6.4/Frameworks/Python.framework/Versions/3.6/lib/python3.6/ctypes/macholib/dyld.py',
   'PYMODULE'),
  ('ctypes.macholib',
   '/usr/local/Cellar/python3/3.6.4/Frameworks/Python.framework/Versions/3.6/lib/python3.6/ctypes/macholib/__init__.py',
   'PYMODULE'),
  ('ctypes.macholib.dylib',
   '/usr/local/Cellar/python3/3.6.4/Frameworks/Python.framework/Versions/3.6/lib/python3.6/ctypes/macholib/dylib.py',
   'PYMODULE'),
  ('ctypes.macholib.framework',
   '/usr/local/Cellar/python3/3.6.4/Frameworks/Python.framework/Versions/3.6/lib/python3.6/ctypes/macholib/framework.py',
   'PYMODULE'),
  ('pkg_resources._vendor.packaging',
   '/usr/local/lib/python3.6/site-packages/pkg_resources/_vendor/packaging/__init__.py',
   'PYMODULE'),
  ('pkg_resources._vendor.packaging.version',
   '/usr/local/lib/python3.6/site-packages/pkg_resources/_vendor/packaging/version.py',
   'PYMODULE'),
  ('pkg_resources._vendor',
   '/usr/local/lib/python3.6/site-packages/pkg_resources/_vendor/__init__.py',
   'PYMODULE'),
  ('pkg_resources._vendor.packaging.requirements',
   '/usr/local/lib/python3.6/site-packages/pkg_resources/_vendor/packaging/requirements.py',
   'PYMODULE'),
  ('pkg_resources._vendor.six',
   '/usr/local/lib/python3.6/site-packages/pkg_resources/_vendor/six.py',
   'PYMODULE'),
  ('pkg_resources._vendor.packaging.utils',
   '/usr/local/lib/python3.6/site-packages/pkg_resources/_vendor/packaging/utils.py',
   'PYMODULE'),
  ('distutils.util',
   '/usr/local/Cellar/python3/3.6.4/Frameworks/Python.framework/Versions/3.6/lib/python3.6/distutils/util.py',
   'PYMODULE'),
  ('distutils.filelist',
   '/usr/local/Cellar/python3/3.6.4/Frameworks/Python.framework/Versions/3.6/lib/python3.6/distutils/filelist.py',
   'PYMODULE'),
  ('distutils.debug',
   '/usr/local/Cellar/python3/3.6.4/Frameworks/Python.framework/Versions/3.6/lib/python3.6/distutils/debug.py',
   'PYMODULE'),
  ('distutils.file_util',
   '/usr/local/Cellar/python3/3.6.4/Frameworks/Python.framework/Versions/3.6/lib/python3.6/distutils/file_util.py',
   'PYMODULE'),
  ('distutils.dir_util',
   '/usr/local/Cellar/python3/3.6.4/Frameworks/Python.framework/Versions/3.6/lib/python3.6/distutils/dir_util.py',
   'PYMODULE'),
  ('lib2to3.refactor',
   '/usr/local/Cellar/python3/3.6.4/Frameworks/Python.framework/Versions/3.6/lib/python3.6/lib2to3/refactor.py',
   'PYMODULE'),
  ('multiprocessing',
   '/usr/local/Cellar/python3/3.6.4/Frameworks/Python.framework/Versions/3.6/lib/python3.6/multiprocessing/__init__.py',
   'PYMODULE'),
  ('multiprocessing.spawn',
   '/usr/local/Cellar/python3/3.6.4/Frameworks/Python.framework/Versions/3.6/lib/python3.6/multiprocessing/spawn.py',
   'PYMODULE'),
  ('runpy',
   '/usr/local/Cellar/python3/3.6.4/Frameworks/Python.framework/Versions/3.6/lib/python3.6/runpy.py',
   'PYMODULE'),
  ('multiprocessing.semaphore_tracker',
   '/usr/local/Cellar/python3/3.6.4/Frameworks/Python.framework/Versions/3.6/lib/python3.6/multiprocessing/semaphore_tracker.py',
   'PYMODULE'),
  ('multiprocessing.pool',
   '/usr/local/Cellar/python3/3.6.4/Frameworks/Python.framework/Versions/3.6/lib/python3.6/multiprocessing/pool.py',
   'PYMODULE'),
  ('multiprocessing.dummy',
   '/usr/local/Cellar/python3/3.6.4/Frameworks/Python.framework/Versions/3.6/lib/python3.6/multiprocessing/dummy/__init__.py',
   'PYMODULE'),
  ('multiprocessing.dummy.connection',
   '/usr/local/Cellar/python3/3.6.4/Frameworks/Python.framework/Versions/3.6/lib/python3.6/multiprocessing/dummy/connection.py',
   'PYMODULE'),
  ('queue',
   '/usr/local/Cellar/python3/3.6.4/Frameworks/Python.framework/Versions/3.6/lib/python3.6/queue.py',
   'PYMODULE'),
  ('multiprocessing.reduction',
   '/usr/local/Cellar/python3/3.6.4/Frameworks/Python.framework/Versions/3.6/lib/python3.6/multiprocessing/reduction.py',
   'PYMODULE'),
  ('multiprocessing.resource_sharer',
   '/usr/local/Cellar/python3/3.6.4/Frameworks/Python.framework/Versions/3.6/lib/python3.6/multiprocessing/resource_sharer.py',
   'PYMODULE'),
  ('multiprocessing.connection',
   '/usr/local/Cellar/python3/3.6.4/Frameworks/Python.framework/Versions/3.6/lib/python3.6/multiprocessing/connection.py',
   'PYMODULE'),
  ('xmlrpc.client',
   '/usr/local/Cellar/python3/3.6.4/Frameworks/Python.framework/Versions/3.6/lib/python3.6/xmlrpc/client.py',
   'PYMODULE'),
  ('xmlrpc',
   '/usr/local/Cellar/python3/3.6.4/Frameworks/Python.framework/Versions/3.6/lib/python3.6/xmlrpc/__init__.py',
   'PYMODULE'),
  ('decimal',
   '/usr/local/Cellar/python3/3.6.4/Frameworks/Python.framework/Versions/3.6/lib/python3.6/decimal.py',
   'PYMODULE'),
  ('_pydecimal',
   '/usr/local/Cellar/python3/3.6.4/Frameworks/Python.framework/Versions/3.6/lib/python3.6/_pydecimal.py',
   'PYMODULE'),
  ('numbers',
   '/usr/local/Cellar/python3/3.6.4/Frameworks/Python.framework/Versions/3.6/lib/python3.6/numbers.py',
   'PYMODULE'),
  ('hmac',
   '/usr/local/Cellar/python3/3.6.4/Frameworks/Python.framework/Versions/3.6/lib/python3.6/hmac.py',
   'PYMODULE'),
  ('multiprocessing.context',
   '/usr/local/Cellar/python3/3.6.4/Frameworks/Python.framework/Versions/3.6/lib/python3.6/multiprocessing/context.py',
   'PYMODULE'),
  ('multiprocessing.popen_spawn_win32',
   '/usr/local/Cellar/python3/3.6.4/Frameworks/Python.framework/Versions/3.6/lib/python3.6/multiprocessing/popen_spawn_win32.py',
   'PYMODULE'),
  ('multiprocessing.popen_forkserver',
   '/usr/local/Cellar/python3/3.6.4/Frameworks/Python.framework/Versions/3.6/lib/python3.6/multiprocessing/popen_forkserver.py',
   'PYMODULE'),
  ('multiprocessing.popen_spawn_posix',
   '/usr/local/Cellar/python3/3.6.4/Frameworks/Python.framework/Versions/3.6/lib/python3.6/multiprocessing/popen_spawn_posix.py',
   'PYMODULE'),
  ('multiprocessing.popen_fork',
   '/usr/local/Cellar/python3/3.6.4/Frameworks/Python.framework/Versions/3.6/lib/python3.6/multiprocessing/popen_fork.py',
   'PYMODULE'),
  ('multiprocessing.forkserver',
   '/usr/local/Cellar/python3/3.6.4/Frameworks/Python.framework/Versions/3.6/lib/python3.6/multiprocessing/forkserver.py',
   'PYMODULE'),
  ('multiprocessing.sharedctypes',
   '/usr/local/Cellar/python3/3.6.4/Frameworks/Python.framework/Versions/3.6/lib/python3.6/multiprocessing/sharedctypes.py',
   'PYMODULE'),
  ('multiprocessing.heap',
   '/usr/local/Cellar/python3/3.6.4/Frameworks/Python.framework/Versions/3.6/lib/python3.6/multiprocessing/heap.py',
   'PYMODULE'),
  ('multiprocessing.queues',
   '/usr/local/Cellar/python3/3.6.4/Frameworks/Python.framework/Versions/3.6/lib/python3.6/multiprocessing/queues.py',
   'PYMODULE'),
  ('multiprocessing.synchronize',
   '/usr/local/Cellar/python3/3.6.4/Frameworks/Python.framework/Versions/3.6/lib/python3.6/multiprocessing/synchronize.py',
   'PYMODULE'),
  ('multiprocessing.managers',
   '/usr/local/Cellar/python3/3.6.4/Frameworks/Python.framework/Versions/3.6/lib/python3.6/multiprocessing/managers.py',
   'PYMODULE'),
  ('multiprocessing.util',
   '/usr/local/Cellar/python3/3.6.4/Frameworks/Python.framework/Versions/3.6/lib/python3.6/multiprocessing/util.py',
   'PYMODULE'),
  ('multiprocessing.process',
   '/usr/local/Cellar/python3/3.6.4/Frameworks/Python.framework/Versions/3.6/lib/python3.6/multiprocessing/process.py',
   'PYMODULE'),
  ('lib2to3.btm_matcher',
   '/usr/local/Cellar/python3/3.6.4/Frameworks/Python.framework/Versions/3.6/lib/python3.6/lib2to3/btm_matcher.py',
   'PYMODULE'),
  ('lib2to3.btm_utils',
   '/usr/local/Cellar/python3/3.6.4/Frameworks/Python.framework/Versions/3.6/lib/python3.6/lib2to3/btm_utils.py',
   'PYMODULE'),
  ('lib2to3.pgen2.grammar',
   '/usr/local/Cellar/python3/3.6.4/Frameworks/Python.framework/Versions/3.6/lib/python3.6/lib2to3/pgen2/grammar.py',
   'PYMODULE'),
  ('lib2to3.pygram',
   '/usr/local/Cellar/python3/3.6.4/Frameworks/Python.framework/Versions/3.6/lib/python3.6/lib2to3/pygram.py',
   'PYMODULE'),
  ('lib2to3.pytree',
   '/usr/local/Cellar/python3/3.6.4/Frameworks/Python.framework/Versions/3.6/lib/python3.6/lib2to3/pytree.py',
   'PYMODULE'),
  ('lib2to3',
   '/usr/local/Cellar/python3/3.6.4/Frameworks/Python.framework/Versions/3.6/lib/python3.6/lib2to3/__init__.py',
   'PYMODULE'),
  ('lib2to3.patcomp',
   '/usr/local/Cellar/python3/3.6.4/Frameworks/Python.framework/Versions/3.6/lib/python3.6/lib2to3/patcomp.py',
   'PYMODULE'),
  ('lib2to3.pgen2.parse',
   '/usr/local/Cellar/python3/3.6.4/Frameworks/Python.framework/Versions/3.6/lib/python3.6/lib2to3/pgen2/parse.py',
   'PYMODULE'),
  ('lib2to3.pgen2.literals',
   '/usr/local/Cellar/python3/3.6.4/Frameworks/Python.framework/Versions/3.6/lib/python3.6/lib2to3/pgen2/literals.py',
   'PYMODULE'),
  ('lib2to3.fixer_util',
   '/usr/local/Cellar/python3/3.6.4/Frameworks/Python.framework/Versions/3.6/lib/python3.6/lib2to3/fixer_util.py',
   'PYMODULE'),
  ('lib2to3.pgen2.token',
   '/usr/local/Cellar/python3/3.6.4/Frameworks/Python.framework/Versions/3.6/lib/python3.6/lib2to3/pgen2/token.py',
   'PYMODULE'),
  ('lib2to3.pgen2.tokenize',
   '/usr/local/Cellar/python3/3.6.4/Frameworks/Python.framework/Versions/3.6/lib/python3.6/lib2to3/pgen2/tokenize.py',
   'PYMODULE'),
  ('lib2to3.pgen2.driver',
   '/usr/local/Cellar/python3/3.6.4/Frameworks/Python.framework/Versions/3.6/lib/python3.6/lib2to3/pgen2/driver.py',
   'PYMODULE'),
  ('lib2to3.pgen2.pgen',
   '/usr/local/Cellar/python3/3.6.4/Frameworks/Python.framework/Versions/3.6/lib/python3.6/lib2to3/pgen2/pgen.py',
   'PYMODULE'),
  ('lib2to3.pgen2',
   '/usr/local/Cellar/python3/3.6.4/Frameworks/Python.framework/Versions/3.6/lib/python3.6/lib2to3/pgen2/__init__.py',
   'PYMODULE'),
  ('distutils.sysconfig',
   '/usr/local/Cellar/python3/3.6.4/Frameworks/Python.framework/Versions/3.6/lib/python3.6/distutils/sysconfig.py',
   'PYMODULE'),
  ('distutils.text_file',
   '/usr/local/Cellar/python3/3.6.4/Frameworks/Python.framework/Versions/3.6/lib/python3.6/distutils/text_file.py',
   'PYMODULE'),
  ('_osx_support',
   '/usr/local/Cellar/python3/3.6.4/Frameworks/Python.framework/Versions/3.6/lib/python3.6/_osx_support.py',
   'PYMODULE'),
  ('distutils.log',
   '/usr/local/Cellar/python3/3.6.4/Frameworks/Python.framework/Versions/3.6/lib/python3.6/distutils/log.py',
   'PYMODULE'),
  ('distutils',
   '/usr/local/Cellar/python3/3.6.4/Frameworks/Python.framework/Versions/3.6/lib/python3.6/distutils/__init__.py',
   'PYMODULE'),
  ('distutils.archive_util',
   '/usr/local/Cellar/python3/3.6.4/Frameworks/Python.framework/Versions/3.6/lib/python3.6/distutils/archive_util.py',
   'PYMODULE'),
  ('distutils.ccompiler',
   '/usr/local/Cellar/python3/3.6.4/Frameworks/Python.framework/Versions/3.6/lib/python3.6/distutils/ccompiler.py',
   'PYMODULE'),
  ('distutils.fancy_getopt',
   '/usr/local/Cellar/python3/3.6.4/Frameworks/Python.framework/Versions/3.6/lib/python3.6/distutils/fancy_getopt.py',
   'PYMODULE'),
  ('distutils.spawn',
   '/usr/local/Cellar/python3/3.6.4/Frameworks/Python.framework/Versions/3.6/lib/python3.6/distutils/spawn.py',
   'PYMODULE'),
  ('distutils.dep_util',
   '/usr/local/Cellar/python3/3.6.4/Frameworks/Python.framework/Versions/3.6/lib/python3.6/distutils/dep_util.py',
   'PYMODULE'),
  ('distutils.errors',
   '/usr/local/Cellar/python3/3.6.4/Frameworks/Python.framework/Versions/3.6/lib/python3.6/distutils/errors.py',
   'PYMODULE'),
  ('sysconfig',
   '/usr/local/Cellar/python3/3.6.4/Frameworks/Python.framework/Versions/3.6/lib/python3.6/sysconfig.py',
   'PYMODULE'),
  ('_sysconfigdata_m_darwin_darwin',
   '/usr/local/Cellar/python3/3.6.4/Frameworks/Python.framework/Versions/3.6/lib/python3.6/_sysconfigdata_m_darwin_darwin.py',
   'PYMODULE'),
  ('pkg_resources.py31compat',
   '/usr/local/lib/python3.6/site-packages/pkg_resources/py31compat.py',
   'PYMODULE'),
  ('pkg_resources.extern',
   '/usr/local/lib/python3.6/site-packages/pkg_resources/extern/__init__.py',
   'PYMODULE'),
  ('imp',
   '/usr/local/Cellar/python3/3.6.4/Frameworks/Python.framework/Versions/3.6/lib/python3.6/imp.py',
   'PYMODULE'),
  ('posixpath',
   '/usr/local/Cellar/python3/3.6.4/Frameworks/Python.framework/Versions/3.6/lib/python3.6/posixpath.py',
   'PYMODULE'),
  ('_strptime',
   '/usr/local/Cellar/python3/3.6.4/Frameworks/Python.framework/Versions/3.6/lib/python3.6/_strptime.py',
   'PYMODULE'),
  ('datetime',
   '/usr/local/Cellar/python3/3.6.4/Frameworks/Python.framework/Versions/3.6/lib/python3.6/datetime.py',
   'PYMODULE'),
  ('stringprep',
   '/usr/local/Cellar/python3/3.6.4/Frameworks/Python.framework/Versions/3.6/lib/python3.6/stringprep.py',
   'PYMODULE'),
  ('fnmatch',
   '/usr/local/Cellar/python3/3.6.4/Frameworks/Python.framework/Versions/3.6/lib/python3.6/fnmatch.py',
   'PYMODULE'),
  ('struct',
   '/usr/local/Cellar/python3/3.6.4/Frameworks/Python.framework/Versions/3.6/lib/python3.6/struct.py',
   'PYMODULE'),
  ('_compat_pickle',
   '/usr/local/Cellar/python3/3.6.4/Frameworks/Python.framework/Versions/3.6/lib/python3.6/_compat_pickle.py',
   'PYMODULE'),
  ('__future__',
   '/usr/local/Cellar/python3/3.6.4/Frameworks/Python.framework/Versions/3.6/lib/python3.6/__future__.py',
   'PYMODULE'),
  ('difflib',
   '/usr/local/Cellar/python3/3.6.4/Frameworks/Python.framework/Versions/3.6/lib/python3.6/difflib.py',
   'PYMODULE'),
  ('ast',
   '/usr/local/Cellar/python3/3.6.4/Frameworks/Python.framework/Versions/3.6/lib/python3.6/ast.py',
   'PYMODULE'),
  ('inspect',
   '/usr/local/Cellar/python3/3.6.4/Frameworks/Python.framework/Versions/3.6/lib/python3.6/inspect.py',
   'PYMODULE'),
  ('cmd',
   '/usr/local/Cellar/python3/3.6.4/Frameworks/Python.framework/Versions/3.6/lib/python3.6/cmd.py',
   'PYMODULE'),
  ('bdb',
   '/usr/local/Cellar/python3/3.6.4/Frameworks/Python.framework/Versions/3.6/lib/python3.6/bdb.py',
   'PYMODULE'),
  ('opcode',
   '/usr/local/Cellar/python3/3.6.4/Frameworks/Python.framework/Versions/3.6/lib/python3.6/opcode.py',
   'PYMODULE'),
  ('dis',
   '/usr/local/Cellar/python3/3.6.4/Frameworks/Python.framework/Versions/3.6/lib/python3.6/dis.py',
   'PYMODULE'),
  ('codeop',
   '/usr/local/Cellar/python3/3.6.4/Frameworks/Python.framework/Versions/3.6/lib/python3.6/codeop.py',
   'PYMODULE'),
  ('code',
   '/usr/local/Cellar/python3/3.6.4/Frameworks/Python.framework/Versions/3.6/lib/python3.6/code.py',
   'PYMODULE'),
  ('glob',
   '/usr/local/Cellar/python3/3.6.4/Frameworks/Python.framework/Versions/3.6/lib/python3.6/glob.py',
   'PYMODULE'),
  ('shlex',
   '/usr/local/Cellar/python3/3.6.4/Frameworks/Python.framework/Versions/3.6/lib/python3.6/shlex.py',
   'PYMODULE'),
  ('importlib._bootstrap',
   '/usr/local/Cellar/python3/3.6.4/Frameworks/Python.framework/Versions/3.6/lib/python3.6/importlib/_bootstrap.py',
   'PYMODULE'),
  ('importlib._bootstrap_external',
   '/usr/local/Cellar/python3/3.6.4/Frameworks/Python.framework/Versions/3.6/lib/python3.6/importlib/_bootstrap_external.py',
   'PYMODULE'),
  ('importlib.machinery',
   '/usr/local/Cellar/python3/3.6.4/Frameworks/Python.framework/Versions/3.6/lib/python3.6/importlib/machinery.py',
   'PYMODULE'),
  ('importlib.util',
   '/usr/local/Cellar/python3/3.6.4/Frameworks/Python.framework/Versions/3.6/lib/python3.6/importlib/util.py',
   'PYMODULE'),
  ('importlib.abc',
   '/usr/local/Cellar/python3/3.6.4/Frameworks/Python.framework/Versions/3.6/lib/python3.6/importlib/abc.py',
   'PYMODULE'),
  ('importlib',
   '/usr/local/Cellar/python3/3.6.4/Frameworks/Python.framework/Versions/3.6/lib/python3.6/importlib/__init__.py',
   'PYMODULE'),
  ('pkgutil',
   '/usr/local/Cellar/python3/3.6.4/Frameworks/Python.framework/Versions/3.6/lib/python3.6/pkgutil.py',
   'PYMODULE'),
  ('xml',
   '/usr/local/Cellar/python3/3.6.4/Frameworks/Python.framework/Versions/3.6/lib/python3.6/xml/__init__.py',
   'PYMODULE'),
  ('xml.sax.expatreader',
   '/usr/local/Cellar/python3/3.6.4/Frameworks/Python.framework/Versions/3.6/lib/python3.6/xml/sax/expatreader.py',
   'PYMODULE'),
  ('xml.sax.saxutils',
   '/usr/local/Cellar/python3/3.6.4/Frameworks/Python.framework/Versions/3.6/lib/python3.6/xml/sax/saxutils.py',
   'PYMODULE'),
  ('urllib.request',
   '/usr/local/Cellar/python3/3.6.4/Frameworks/Python.framework/Versions/3.6/lib/python3.6/urllib/request.py',
   'PYMODULE'),
  ('getpass',
   '/usr/local/Cellar/python3/3.6.4/Frameworks/Python.framework/Versions/3.6/lib/python3.6/getpass.py',
   'PYMODULE'),
  ('nturl2path',
   '/usr/local/Cellar/python3/3.6.4/Frameworks/Python.framework/Versions/3.6/lib/python3.6/nturl2path.py',
   'PYMODULE'),
  ('ftplib',
   '/usr/local/Cellar/python3/3.6.4/Frameworks/Python.framework/Versions/3.6/lib/python3.6/ftplib.py',
   'PYMODULE'),
  ('netrc',
   '/usr/local/Cellar/python3/3.6.4/Frameworks/Python.framework/Versions/3.6/lib/python3.6/netrc.py',
   'PYMODULE'),
  ('http.cookiejar',
   '/usr/local/Cellar/python3/3.6.4/Frameworks/Python.framework/Versions/3.6/lib/python3.6/http/cookiejar.py',
   'PYMODULE'),
  ('urllib.response',
   '/usr/local/Cellar/python3/3.6.4/Frameworks/Python.framework/Versions/3.6/lib/python3.6/urllib/response.py',
   'PYMODULE'),
  ('urllib.error',
   '/usr/local/Cellar/python3/3.6.4/Frameworks/Python.framework/Versions/3.6/lib/python3.6/urllib/error.py',
   'PYMODULE'),
  ('xml.sax',
   '/usr/local/Cellar/python3/3.6.4/Frameworks/Python.framework/Versions/3.6/lib/python3.6/xml/sax/__init__.py',
   'PYMODULE'),
  ('xml.sax.handler',
   '/usr/local/Cellar/python3/3.6.4/Frameworks/Python.framework/Versions/3.6/lib/python3.6/xml/sax/handler.py',
   'PYMODULE'),
  ('xml.sax._exceptions',
   '/usr/local/Cellar/python3/3.6.4/Frameworks/Python.framework/Versions/3.6/lib/python3.6/xml/sax/_exceptions.py',
   'PYMODULE'),
  ('xml.sax.xmlreader',
   '/usr/local/Cellar/python3/3.6.4/Frameworks/Python.framework/Versions/3.6/lib/python3.6/xml/sax/xmlreader.py',
   'PYMODULE'),
  ('xml.parsers',
   '/usr/local/Cellar/python3/3.6.4/Frameworks/Python.framework/Versions/3.6/lib/python3.6/xml/parsers/__init__.py',
   'PYMODULE'),
  ('xml.parsers.expat',
   '/usr/local/Cellar/python3/3.6.4/Frameworks/Python.framework/Versions/3.6/lib/python3.6/xml/parsers/expat.py',
   'PYMODULE'),
  ('plistlib',
   '/usr/local/Cellar/python3/3.6.4/Frameworks/Python.framework/Versions/3.6/lib/python3.6/plistlib.py',
   'PYMODULE'),
  ('platform',
   '/usr/local/Cellar/python3/3.6.4/Frameworks/Python.framework/Versions/3.6/lib/python3.6/platform.py',
   'PYMODULE'),
  ('token',
   '/usr/local/Cellar/python3/3.6.4/Frameworks/Python.framework/Versions/3.6/lib/python3.6/token.py',
   'PYMODULE'),
  ('tokenize',
   '/usr/local/Cellar/python3/3.6.4/Frameworks/Python.framework/Versions/3.6/lib/python3.6/tokenize.py',
   'PYMODULE'),
  ('urllib.parse',
   '/usr/local/Cellar/python3/3.6.4/Frameworks/Python.framework/Versions/3.6/lib/python3.6/urllib/parse.py',
   'PYMODULE'),
  ('tempfile',
   '/usr/local/Cellar/python3/3.6.4/Frameworks/Python.framework/Versions/3.6/lib/python3.6/tempfile.py',
   'PYMODULE'),
  ('tty',
   '/usr/local/Cellar/python3/3.6.4/Frameworks/Python.framework/Versions/3.6/lib/python3.6/tty.py',
   'PYMODULE'),
  ('pydoc_data',
   '/usr/local/Cellar/python3/3.6.4/Frameworks/Python.framework/Versions/3.6/lib/python3.6/pydoc_data/__init__.py',
   'PYMODULE'),
  ('pydoc_data.topics',
   '/usr/local/Cellar/python3/3.6.4/Frameworks/Python.framework/Versions/3.6/lib/python3.6/pydoc_data/topics.py',
   'PYMODULE'),
  ('html.entities',
   '/usr/local/Cellar/python3/3.6.4/Frameworks/Python.framework/Versions/3.6/lib/python3.6/html/entities.py',
   'PYMODULE'),
  ('html',
   '/usr/local/Cellar/python3/3.6.4/Frameworks/Python.framework/Versions/3.6/lib/python3.6/html/__init__.py',
   'PYMODULE'),
  ('ipaddress',
   '/usr/local/Cellar/python3/3.6.4/Frameworks/Python.framework/Versions/3.6/lib/python3.6/ipaddress.py',
   'PYMODULE'),
  ('ssl',
   '/usr/local/Cellar/python3/3.6.4/Frameworks/Python.framework/Versions/3.6/lib/python3.6/ssl.py',
   'PYMODULE'),
  ('http.client',
   '/usr/local/Cellar/python3/3.6.4/Frameworks/Python.framework/Versions/3.6/lib/python3.6/http/client.py',
   'PYMODULE'),
  ('mimetypes',
   '/usr/local/Cellar/python3/3.6.4/Frameworks/Python.framework/Versions/3.6/lib/python3.6/mimetypes.py',
   'PYMODULE'),
  ('socketserver',
   '/usr/local/Cellar/python3/3.6.4/Frameworks/Python.framework/Versions/3.6/lib/python3.6/socketserver.py',
   'PYMODULE'),
  ('http',
   '/usr/local/Cellar/python3/3.6.4/Frameworks/Python.framework/Versions/3.6/lib/python3.6/http/__init__.py',
   'PYMODULE'),
  ('http.server',
   '/usr/local/Cellar/python3/3.6.4/Frameworks/Python.framework/Versions/3.6/lib/python3.6/http/server.py',
   'PYMODULE'),
  ('optparse',
   '/usr/local/Cellar/python3/3.6.4/Frameworks/Python.framework/Versions/3.6/lib/python3.6/optparse.py',
   'PYMODULE'),
  ('uu',
   '/usr/local/Cellar/python3/3.6.4/Frameworks/Python.framework/Versions/3.6/lib/python3.6/uu.py',
   'PYMODULE'),
  ('quopri',
   '/usr/local/Cellar/python3/3.6.4/Frameworks/Python.framework/Versions/3.6/lib/python3.6/quopri.py',
   'PYMODULE'),
  ('email.feedparser',
   '/usr/local/Cellar/python3/3.6.4/Frameworks/Python.framework/Versions/3.6/lib/python3.6/email/feedparser.py',
   'PYMODULE'),
  ('email.parser',
   '/usr/local/Cellar/python3/3.6.4/Frameworks/Python.framework/Versions/3.6/lib/python3.6/email/parser.py',
   'PYMODULE'),
  ('email',
   '/usr/local/Cellar/python3/3.6.4/Frameworks/Python.framework/Versions/3.6/lib/python3.6/email/__init__.py',
   'PYMODULE'),
  ('calendar',
   '/usr/local/Cellar/python3/3.6.4/Frameworks/Python.framework/Versions/3.6/lib/python3.6/calendar.py',
   'PYMODULE'),
  ('email._parseaddr',
   '/usr/local/Cellar/python3/3.6.4/Frameworks/Python.framework/Versions/3.6/lib/python3.6/email/_parseaddr.py',
   'PYMODULE'),
  ('email.utils',
   '/usr/local/Cellar/python3/3.6.4/Frameworks/Python.framework/Versions/3.6/lib/python3.6/email/utils.py',
   'PYMODULE'),
  ('email.errors',
   '/usr/local/Cellar/python3/3.6.4/Frameworks/Python.framework/Versions/3.6/lib/python3.6/email/errors.py',
   'PYMODULE'),
  ('email.header',
   '/usr/local/Cellar/python3/3.6.4/Frameworks/Python.framework/Versions/3.6/lib/python3.6/email/header.py',
   'PYMODULE'),
  ('email._policybase',
   '/usr/local/Cellar/python3/3.6.4/Frameworks/Python.framework/Versions/3.6/lib/python3.6/email/_policybase.py',
   'PYMODULE'),
  ('email.base64mime',
   '/usr/local/Cellar/python3/3.6.4/Frameworks/Python.framework/Versions/3.6/lib/python3.6/email/base64mime.py',
   'PYMODULE'),
  ('email.encoders',
   '/usr/local/Cellar/python3/3.6.4/Frameworks/Python.framework/Versions/3.6/lib/python3.6/email/encoders.py',
   'PYMODULE'),
  ('email.charset',
   '/usr/local/Cellar/python3/3.6.4/Frameworks/Python.framework/Versions/3.6/lib/python3.6/email/charset.py',
   'PYMODULE'),
  ('base64',
   '/usr/local/Cellar/python3/3.6.4/Frameworks/Python.framework/Versions/3.6/lib/python3.6/base64.py',
   'PYMODULE'),
  ('email._encoded_words',
   '/usr/local/Cellar/python3/3.6.4/Frameworks/Python.framework/Versions/3.6/lib/python3.6/email/_encoded_words.py',
   'PYMODULE'),
  ('hashlib',
   '/usr/local/Cellar/python3/3.6.4/Frameworks/Python.framework/Versions/3.6/lib/python3.6/hashlib.py',
   'PYMODULE'),
  ('bisect',
   '/usr/local/Cellar/python3/3.6.4/Frameworks/Python.framework/Versions/3.6/lib/python3.6/bisect.py',
   'PYMODULE'),
  ('random',
   '/usr/local/Cellar/python3/3.6.4/Frameworks/Python.framework/Versions/3.6/lib/python3.6/random.py',
   'PYMODULE'),
  ('email.generator',
   '/usr/local/Cellar/python3/3.6.4/Frameworks/Python.framework/Versions/3.6/lib/python3.6/email/generator.py',
   'PYMODULE'),
  ('email.iterators',
   '/usr/local/Cellar/python3/3.6.4/Frameworks/Python.framework/Versions/3.6/lib/python3.6/email/iterators.py',
   'PYMODULE'),
  ('urllib',
   '/usr/local/Cellar/python3/3.6.4/Frameworks/Python.framework/Versions/3.6/lib/python3.6/urllib/__init__.py',
   'PYMODULE'),
  ('email._header_value_parser',
   '/usr/local/Cellar/python3/3.6.4/Frameworks/Python.framework/Versions/3.6/lib/python3.6/email/_header_value_parser.py',
   'PYMODULE'),
  ('email.headerregistry',
   '/usr/local/Cellar/python3/3.6.4/Frameworks/Python.framework/Versions/3.6/lib/python3.6/email/headerregistry.py',
   'PYMODULE'),
  ('email.quoprimime',
   '/usr/local/Cellar/python3/3.6.4/Frameworks/Python.framework/Versions/3.6/lib/python3.6/email/quoprimime.py',
   'PYMODULE'),
  ('email.contentmanager',
   '/usr/local/Cellar/python3/3.6.4/Frameworks/Python.framework/Versions/3.6/lib/python3.6/email/contentmanager.py',
   'PYMODULE'),
  ('email.policy',
   '/usr/local/Cellar/python3/3.6.4/Frameworks/Python.framework/Versions/3.6/lib/python3.6/email/policy.py',
   'PYMODULE'),
  ('email.message',
   '/usr/local/Cellar/python3/3.6.4/Frameworks/Python.framework/Versions/3.6/lib/python3.6/email/message.py',
   'PYMODULE'),
  ('bz2',
   '/usr/local/Cellar/python3/3.6.4/Frameworks/Python.framework/Versions/3.6/lib/python3.6/bz2.py',
   'PYMODULE'),
  ('lzma',
   '/usr/local/Cellar/python3/3.6.4/Frameworks/Python.framework/Versions/3.6/lib/python3.6/lzma.py',
   'PYMODULE'),
  ('_compression',
   '/usr/local/Cellar/python3/3.6.4/Frameworks/Python.framework/Versions/3.6/lib/python3.6/_compression.py',
   'PYMODULE'),
  ('gzip',
   '/usr/local/Cellar/python3/3.6.4/Frameworks/Python.framework/Versions/3.6/lib/python3.6/gzip.py',
   'PYMODULE'),
  ('tarfile',
   '/usr/local/Cellar/python3/3.6.4/Frameworks/Python.framework/Versions/3.6/lib/python3.6/tarfile.py',
   'PYMODULE'),
  ('py_compile',
   '/usr/local/Cellar/python3/3.6.4/Frameworks/Python.framework/Versions/3.6/lib/python3.6/py_compile.py',
   'PYMODULE'),
  ('zipfile',
   '/usr/local/Cellar/python3/3.6.4/Frameworks/Python.framework/Versions/3.6/lib/python3.6/zipfile.py',
   'PYMODULE'),
  ('shutil',
   '/usr/local/Cellar/python3/3.6.4/Frameworks/Python.framework/Versions/3.6/lib/python3.6/shutil.py',
   'PYMODULE'),
  ('socket',
   '/usr/local/Cellar/python3/3.6.4/Frameworks/Python.framework/Versions/3.6/lib/python3.6/socket.py',
   'PYMODULE'),
  ('webbrowser',
   '/usr/local/Cellar/python3/3.6.4/Frameworks/Python.framework/Versions/3.6/lib/python3.6/webbrowser.py',
   'PYMODULE'),
  ('pydoc',
   '/usr/local/Cellar/python3/3.6.4/Frameworks/Python.framework/Versions/3.6/lib/python3.6/pydoc.py',
   'PYMODULE'),
  ('getopt',
   '/usr/local/Cellar/python3/3.6.4/Frameworks/Python.framework/Versions/3.6/lib/python3.6/getopt.py',
   'PYMODULE'),
  ('pdb',
   '/usr/local/Cellar/python3/3.6.4/Frameworks/Python.framework/Versions/3.6/lib/python3.6/pdb.py',
   'PYMODULE'),
  ('unittest.util',
   '/usr/local/Cellar/python3/3.6.4/Frameworks/Python.framework/Versions/3.6/lib/python3.6/unittest/util.py',
   'PYMODULE'),
  ('unittest.result',
   '/usr/local/Cellar/python3/3.6.4/Frameworks/Python.framework/Versions/3.6/lib/python3.6/unittest/result.py',
   'PYMODULE'),
  ('logging',
   '/usr/local/Cellar/python3/3.6.4/Frameworks/Python.framework/Versions/3.6/lib/python3.6/logging/__init__.py',
   'PYMODULE'),
  ('unittest.case',
   '/usr/local/Cellar/python3/3.6.4/Frameworks/Python.framework/Versions/3.6/lib/python3.6/unittest/case.py',
   'PYMODULE'),
  ('unittest.suite',
   '/usr/local/Cellar/python3/3.6.4/Frameworks/Python.framework/Versions/3.6/lib/python3.6/unittest/suite.py',
   'PYMODULE'),
  ('unittest.loader',
   '/usr/local/Cellar/python3/3.6.4/Frameworks/Python.framework/Versions/3.6/lib/python3.6/unittest/loader.py',
   'PYMODULE'),
  ('unittest.runner',
   '/usr/local/Cellar/python3/3.6.4/Frameworks/Python.framework/Versions/3.6/lib/python3.6/unittest/runner.py',
   'PYMODULE'),
  ('unittest.main',
   '/usr/local/Cellar/python3/3.6.4/Frameworks/Python.framework/Versions/3.6/lib/python3.6/unittest/main.py',
   'PYMODULE'),
  ('unittest.signals',
   '/usr/local/Cellar/python3/3.6.4/Frameworks/Python.framework/Versions/3.6/lib/python3.6/unittest/signals.py',
   'PYMODULE'),
  ('unittest',
   '/usr/local/Cellar/python3/3.6.4/Frameworks/Python.framework/Versions/3.6/lib/python3.6/unittest/__init__.py',
   'PYMODULE'),
  ('doctest',
   '/usr/local/Cellar/python3/3.6.4/Frameworks/Python.framework/Versions/3.6/lib/python3.6/doctest.py',
   'PYMODULE'),
  ('copy',
   '/usr/local/Cellar/python3/3.6.4/Frameworks/Python.framework/Versions/3.6/lib/python3.6/copy.py',
   'PYMODULE'),
  ('stat',
   '/usr/local/Cellar/python3/3.6.4/Frameworks/Python.framework/Versions/3.6/lib/python3.6/stat.py',
   'PYMODULE'),
  ('genericpath',
   '/usr/local/Cellar/python3/3.6.4/Frameworks/Python.framework/Versions/3.6/lib/python3.6/genericpath.py',
   'PYMODULE'),
  ('string',
   '/usr/local/Cellar/python3/3.6.4/Frameworks/Python.framework/Versions/3.6/lib/python3.6/string.py',
   'PYMODULE'),
  ('ntpath',
   '/usr/local/Cellar/python3/3.6.4/Frameworks/Python.framework/Versions/3.6/lib/python3.6/ntpath.py',
   'PYMODULE'),
  ('enum',
   '/usr/local/Cellar/python3/3.6.4/Frameworks/Python.framework/Versions/3.6/lib/python3.6/enum.py',
   'PYMODULE'),
  ('signal',
   '/usr/local/Cellar/python3/3.6.4/Frameworks/Python.framework/Versions/3.6/lib/python3.6/signal.py',
   'PYMODULE'),
  ('contextlib',
   '/usr/local/Cellar/python3/3.6.4/Frameworks/Python.framework/Versions/3.6/lib/python3.6/contextlib.py',
   'PYMODULE'),
  ('_threading_local',
   '/usr/local/Cellar/python3/3.6.4/Frameworks/Python.framework/Versions/3.6/lib/python3.6/_threading_local.py',
   'PYMODULE'),
  ('threading',
   '/usr/local/Cellar/python3/3.6.4/Frameworks/Python.framework/Versions/3.6/lib/python3.6/threading.py',
   'PYMODULE'),
  ('selectors',
   '/usr/local/Cellar/python3/3.6.4/Frameworks/Python.framework/Versions/3.6/lib/python3.6/selectors.py',
   'PYMODULE'),
  ('_dummy_thread',
   '/usr/local/Cellar/python3/3.6.4/Frameworks/Python.framework/Versions/3.6/lib/python3.6/_dummy_thread.py',
   'PYMODULE'),
  ('dummy_threading',
   '/usr/local/Cellar/python3/3.6.4/Frameworks/Python.framework/Versions/3.6/lib/python3.6/dummy_threading.py',
   'PYMODULE'),
  ('subprocess',
   '/usr/local/Cellar/python3/3.6.4/Frameworks/Python.framework/Versions/3.6/lib/python3.6/subprocess.py',
   'PYMODULE'),
  ('os',
   '/usr/local/Cellar/python3/3.6.4/Frameworks/Python.framework/Versions/3.6/lib/python3.6/os.py',
   'PYMODULE'),
  ('textwrap',
   '/usr/local/Cellar/python3/3.6.4/Frameworks/Python.framework/Versions/3.6/lib/python3.6/textwrap.py',
   'PYMODULE'),
  ('gettext',
   '/usr/local/Cellar/python3/3.6.4/Frameworks/Python.framework/Versions/3.6/lib/python3.6/gettext.py',
   'PYMODULE'),
  ('argparse',
   '/usr/local/Cellar/python3/3.6.4/Frameworks/Python.framework/Versions/3.6/lib/python3.6/argparse.py',
   'PYMODULE'),
  ('pprint',
   '/usr/local/Cellar/python3/3.6.4/Frameworks/Python.framework/Versions/3.6/lib/python3.6/pprint.py',
   'PYMODULE'),
  ('pickle',
   '/usr/local/Cellar/python3/3.6.4/Frameworks/Python.framework/Versions/3.6/lib/python3.6/pickle.py',
   'PYMODULE'),
  ('tracemalloc',
   '/usr/local/Cellar/python3/3.6.4/Frameworks/Python.framework/Versions/3.6/lib/python3.6/tracemalloc.py',
   'PYMODULE'),
  ('warnings',
   '/usr/local/Cellar/python3/3.6.4/Frameworks/Python.framework/Versions/3.6/lib/python3.6/warnings.py',
   'PYMODULE'),
  ('TheBlackOfSpace',
   '/Users/michaeltreiman/TheBlackOfSpaceTestBranch/TheBlackOfSpace.py',
   'PYMODULE'),
  ('game_config',
   '/Users/michaeltreiman/TheBlackOfSpaceTestBranch/game_config.py',
   'PYMODULE'),
  ('run_records',
   '/Users/michaeltreiman/TheBlackOfSpaceTestBranch/run_records.py',
   'PYMODULE'),
  ('text2',
   '/Users/michaeltreiman/TheBlackOfSpaceTestBranch/text2.py',
   'PYMODULE'),
  ('text_box',
   '/Users/michaeltreiman/TheBlackOfSpaceTestBranch/text_box.py',
   'PYMODULE'),
  ('finish_line',
   '/Users/michaeltreiman/TheBlackOfSpaceTestBranch/finish_line.py',
   'PYMODULE'),
  ('numpy',
   '/usr/local/lib/python3.6/site-packages/numpy/__init__.py',
   'PYMODULE'),
  ('numpy.matrixlib',
   '/usr/local/lib/python3.6/site-packages/numpy/matrixlib/__init__.py',
   'PYMODULE'),
  ('numpy.testing.nosetester',
   '/usr/local/lib/python3.6/site-packages/numpy/testing/nosetester.py',
   'PYMODULE'),
  ('numpy.distutils.cpuinfo',
   '/usr/local/lib/python3.6/site-packages/numpy/distutils/cpuinfo.py',
   'PYMODULE'),
  ('numpy.distutils.compat',
   '/usr/local/lib/python3.6/site-packages/numpy/distutils/compat.py',
   'PYMODULE'),
  ('numpy.distutils',
   '/usr/local/lib/python3.6/site-packages/numpy/distutils/__init__.py',
   'PYMODULE'),
  ('numpy.distutils.__config__',
   '/usr/local/lib/python3.6/site-packages/numpy/distutils/__config__.py',
   'PYMODULE'),
  ('numpy.distutils.npy_pkg_config',
   '/usr/local/lib/python3.6/site-packages/numpy/distutils/npy_pkg_config.py',
   'PYMODULE'),
  ('configparser',
   '/usr/local/Cellar/python3/3.6.4/Frameworks/Python.framework/Versions/3.6/lib/python3.6/configparser.py',
   'PYMODULE'),
  ('numpy.distutils.info',
   '/usr/local/lib/python3.6/site-packages/numpy/distutils/info.py',
   'PYMODULE'),
  ('numpy.distutils.unixccompiler',
   '/usr/local/lib/python3.6/site-packages/numpy/distutils/unixccompiler.py',
   'PYMODULE'),
  ('numpy.distutils.misc_util',
   '/usr/local/lib/python3.6/site-packages/numpy/distutils/misc_util.py',
   'PYMODULE'),
  ('distutils.core',
   '/usr/local/Cellar/python3/3.6.4/Frameworks/Python.framework/Versions/3.6/lib/python3.6/distutils/core.py',
   'PYMODULE'),
  ('distutils.extension',
   '/usr/local/Cellar/python3/3.6.4/Frameworks/Python.framework/Versions/3.6/lib/python3.6/distutils/extension.py',
   'PYMODULE'),
  ('distutils.config',
   '/usr/local/Cellar/python3/3.6.4/Frameworks/Python.framework/Versions/3.6/lib/python3.6/distutils/config.py',
   'PYMODULE'),
  ('cgi',
   '/usr/local/Cellar/python3/3.6.4/Frameworks/Python.framework/Versions/3.6/lib/python3.6/cgi.py',
   'PYMODULE'),
  ('distutils.cmd',
   '/usr/local/Cellar/python3/3.6.4/Frameworks/Python.framework/Versions/3.6/lib/python3.6/distutils/cmd.py',
   'PYMODULE'),
  ('distutils.dist',
   '/usr/local/Cellar/python3/3.6.4/Frameworks/Python.framework/Versions/3.6/lib/python3.6/distutils/dist.py',
   'PYMODULE'),
  ('distutils.versionpredicate',
   '/usr/local/Cellar/python3/3.6.4/Frameworks/Python.framework/Versions/3.6/lib/python3.6/distutils/versionpredicate.py',
   'PYMODULE'),
  ('distutils.version',
   '/usr/local/Cellar/python3/3.6.4/Frameworks/Python.framework/Versions/3.6/lib/python3.6/distutils/version.py',
   'PYMODULE'),
  ('distutils.command',
   '/usr/local/Cellar/python3/3.6.4/Frameworks/Python.framework/Versions/3.6/lib/python3.6/distutils/command/__init__.py',
   'PYMODULE'),
  ('numpy.distutils.system_info',
   '/usr/local/lib/python3.6/site-packages/numpy/distutils/system_info.py',
   'PYMODULE'),
  ('numpy.f2py',
   '/usr/local/lib/python3.6/site-packages/numpy/f2py/__init__.py',
   'PYMODULE'),
  ('numpy.f2py.diagnose',
   '/usr/local/lib/python3.6/site-packages/numpy/f2py/diagnose.py',
   'PYMODULE'),
  ('numpy.distutils.fcompiler',
   '/usr/local/lib/python3.6/site-packages/numpy/distutils/fcompiler/__init__.py',
   'PYMODULE'),
  ('numpy.distutils.command.config_compiler',
   '/usr/local/lib/python3.6/site-packages/numpy/distutils/command/config_compiler.py',
   'PYMODULE'),
  ('numpy.distutils.command',
   '/usr/local/lib/python3.6/site-packages/numpy/distutils/command/__init__.py',
   'PYMODULE'),
  ('numpy.distutils.command.egg_info',
   '/usr/local/lib/python3.6/site-packages/numpy/distutils/command/egg_info.py',
   'PYMODULE'),
  ('setuptools.command.egg_info',
   '/usr/local/lib/python3.6/site-packages/setuptools/command/egg_info.py',
   'PYMODULE'),
  ('setuptools.glob',
   '/usr/local/lib/python3.6/site-packages/setuptools/glob.py',
   'PYMODULE'),
  ('setuptools.unicode_utils',
   '/usr/local/lib/python3.6/site-packages/setuptools/unicode_utils.py',
   'PYMODULE'),
  ('setuptools.command.bdist_egg',
   '/usr/local/lib/python3.6/site-packages/setuptools/command/bdist_egg.py',
   'PYMODULE'),
  ('setuptools.extension',
   '/usr/local/lib/python3.6/site-packages/setuptools/extension.py',
   'PYMODULE'),
  ('setuptools.monkey',
   '/usr/local/lib/python3.6/site-packages/setuptools/monkey.py',
   'PYMODULE'),
  ('setuptools.command',
   '/usr/local/lib/python3.6/site-packages/setuptools/command/__init__.py',
   'PYMODULE'),
  ('setuptools.command.install_scripts',
   '/usr/local/lib/python3.6/site-packages/setuptools/command/install_scripts.py',
   'PYMODULE'),
  ('setuptools.command.easy_install',
   '/usr/local/lib/python3.6/site-packages/setuptools/command/easy_install.py',
   'PYMODULE'),
  ('setuptools.dist',
   '/usr/local/lib/python3.6/site-packages/setuptools/dist.py',
   'PYMODULE'),
  ('setuptools.py36compat',
   '/usr/local/lib/python3.6/site-packages/setuptools/py36compat.py',
   'PYMODULE'),
  ('setuptools.config',
   '/usr/local/lib/python3.6/site-packages/setuptools/config.py',
   'PYMODULE'),
  ('setuptools.windows_support',
   '/usr/local/lib/python3.6/site-packages/setuptools/windows_support.py',
   'PYMODULE'),
  ('setuptools.depends',
   '/usr/local/lib/python3.6/site-packages/setuptools/depends.py',
   'PYMODULE'),
  ('setuptools.py33compat',
   '/usr/local/lib/python3.6/site-packages/setuptools/py33compat.py',
   'PYMODULE'),
  ('setuptools.wheel',
   '/usr/local/lib/python3.6/site-packages/setuptools/wheel.py',
   'PYMODULE'),
  ('setuptools.pep425tags',
   '/usr/local/lib/python3.6/site-packages/setuptools/pep425tags.py',
   'PYMODULE'),
  ('setuptools.glibc',
   '/usr/local/lib/python3.6/site-packages/setuptools/glibc.py',
   'PYMODULE'),
  ('setuptools.package_index',
   '/usr/local/lib/python3.6/site-packages/setuptools/package_index.py',
   'PYMODULE'),
  ('setuptools.ssl_support',
   '/usr/local/lib/python3.6/site-packages/setuptools/ssl_support.py',
   'PYMODULE'),
  ('setuptools.archive_util',
   '/usr/local/lib/python3.6/site-packages/setuptools/archive_util.py',
   'PYMODULE'),
  ('setuptools.py27compat',
   '/usr/local/lib/python3.6/site-packages/setuptools/py27compat.py',
   'PYMODULE'),
  ('setuptools.py31compat',
   '/usr/local/lib/python3.6/site-packages/setuptools/py31compat.py',
   'PYMODULE'),
  ('setuptools.sandbox',
   '/usr/local/lib/python3.6/site-packages/setuptools/sandbox.py',
   'PYMODULE'),
  ('site',
   '/usr/local/lib/python3.6/site-packages/PyInstaller/fake-modules/site.py',
   'PYMODULE'),
  ('distutils.command.build_scripts',
   '/usr/local/Cellar/python3/3.6.4/Frameworks/Python.framework/Versions/3.6/lib/python3.6/distutils/command/build_scripts.py',
   'PYMODULE'),
  ('distutils.command.install',
   '/usr/local/Cellar/python3/3.6.4/Frameworks/Python.framework/Versions/3.6/lib/python3.6/distutils/command/install.py',
   'PYMODULE'),
  ('distutils.command.install_scripts',
   '/usr/local/Cellar/python3/3.6.4/Frameworks/Python.framework/Versions/3.6/lib/python3.6/distutils/command/install_scripts.py',
   'PYMODULE'),
  ('distutils.command.bdist',
   '/usr/local/Cellar/python3/3.6.4/Frameworks/Python.framework/Versions/3.6/lib/python3.6/distutils/command/bdist.py',
   'PYMODULE'),
  ('setuptools.command.setopt',
   '/usr/local/lib/python3.6/site-packages/setuptools/command/setopt.py',
   'PYMODULE'),
  ('setuptools.command.sdist',
   '/usr/local/lib/python3.6/site-packages/setuptools/command/sdist.py',
   'PYMODULE'),
  ('setuptools.command.py36compat',
   '/usr/local/lib/python3.6/site-packages/setuptools/command/py36compat.py',
   'PYMODULE'),
  ('distutils.command.sdist',
   '/usr/local/Cellar/python3/3.6.4/Frameworks/Python.framework/Versions/3.6/lib/python3.6/distutils/command/sdist.py',
   'PYMODULE'),
  ('setuptools',
   '/usr/local/lib/python3.6/site-packages/setuptools/__init__.py',
   'PYMODULE'),
  ('setuptools.msvc',
   '/usr/local/lib/python3.6/site-packages/setuptools/msvc.py',
   'PYMODULE'),
  ('distutils.msvc9compiler',
   '/usr/local/Cellar/python3/3.6.4/Frameworks/Python.framework/Versions/3.6/lib/python3.6/distutils/msvc9compiler.py',
   'PYMODULE'),
  ('distutils.command.build_ext',
   '/usr/local/Cellar/python3/3.6.4/Frameworks/Python.framework/Versions/3.6/lib/python3.6/distutils/command/build_ext.py',
   'PYMODULE'),
  ('distutils._msvccompiler',
   '/usr/local/Cellar/python3/3.6.4/Frameworks/Python.framework/Versions/3.6/lib/python3.6/distutils/_msvccompiler.py',
   'PYMODULE'),
  ('concurrent.futures',
   '/usr/local/Cellar/python3/3.6.4/Frameworks/Python.framework/Versions/3.6/lib/python3.6/concurrent/futures/__init__.py',
   'PYMODULE'),
  ('concurrent.futures.thread',
   '/usr/local/Cellar/python3/3.6.4/Frameworks/Python.framework/Versions/3.6/lib/python3.6/concurrent/futures/thread.py',
   'PYMODULE'),
  ('concurrent.futures.process',
   '/usr/local/Cellar/python3/3.6.4/Frameworks/Python.framework/Versions/3.6/lib/python3.6/concurrent/futures/process.py',
   'PYMODULE'),
  ('concurrent.futures._base',
   '/usr/local/Cellar/python3/3.6.4/Frameworks/Python.framework/Versions/3.6/lib/python3.6/concurrent/futures/_base.py',
   'PYMODULE'),
  ('concurrent',
   '/usr/local/Cellar/python3/3.6.4/Frameworks/Python.framework/Versions/3.6/lib/python3.6/concurrent/__init__.py',
   'PYMODULE'),
  ('setuptools.namespaces',
   '/usr/local/lib/python3.6/site-packages/setuptools/namespaces.py',
   'PYMODULE'),
  ('setuptools.version',
   '/usr/local/lib/python3.6/site-packages/setuptools/version.py',
   'PYMODULE'),
  ('setuptools.extern',
   '/usr/local/lib/python3.6/site-packages/setuptools/extern/__init__.py',
   'PYMODULE'),
  ('numpy.distutils.command.develop',
   '/usr/local/lib/python3.6/site-packages/numpy/distutils/command/develop.py',
   'PYMODULE'),
  ('setuptools.command.develop',
   '/usr/local/lib/python3.6/site-packages/setuptools/command/develop.py',
   'PYMODULE'),
  ('numpy.distutils.command.install_clib',
   '/usr/local/lib/python3.6/site-packages/numpy/distutils/command/install_clib.py',
   'PYMODULE'),
  ('numpy.distutils.command.bdist_rpm',
   '/usr/local/lib/python3.6/site-packages/numpy/distutils/command/bdist_rpm.py',
   'PYMODULE'),
  ('distutils.command.bdist_rpm',
   '/usr/local/Cellar/python3/3.6.4/Frameworks/Python.framework/Versions/3.6/lib/python3.6/distutils/command/bdist_rpm.py',
   'PYMODULE'),
  ('setuptools.command.bdist_rpm',
   '/usr/local/lib/python3.6/site-packages/setuptools/command/bdist_rpm.py',
   'PYMODULE'),
  ('numpy.distutils.command.install',
   '/usr/local/lib/python3.6/site-packages/numpy/distutils/command/install.py',
   'PYMODULE'),
  ('setuptools.command.install',
   '/usr/local/lib/python3.6/site-packages/setuptools/command/install.py',
   'PYMODULE'),
  ('numpy.distutils.command.install_headers',
   '/usr/local/lib/python3.6/site-packages/numpy/distutils/command/install_headers.py',
   'PYMODULE'),
  ('distutils.command.install_headers',
   '/usr/local/Cellar/python3/3.6.4/Frameworks/Python.framework/Versions/3.6/lib/python3.6/distutils/command/install_headers.py',
   'PYMODULE'),
  ('numpy.distutils.command.install_data',
   '/usr/local/lib/python3.6/site-packages/numpy/distutils/command/install_data.py',
   'PYMODULE'),
  ('distutils.command.install_data',
   '/usr/local/Cellar/python3/3.6.4/Frameworks/Python.framework/Versions/3.6/lib/python3.6/distutils/command/install_data.py',
   'PYMODULE'),
  ('numpy.distutils.command.sdist',
   '/usr/local/lib/python3.6/site-packages/numpy/distutils/command/sdist.py',
   'PYMODULE'),
  ('numpy.distutils.command.build_scripts',
   '/usr/local/lib/python3.6/site-packages/numpy/distutils/command/build_scripts.py',
   'PYMODULE'),
  ('numpy.distutils.command.build_clib',
   '/usr/local/lib/python3.6/site-packages/numpy/distutils/command/build_clib.py',
   'PYMODULE'),
  ('distutils.command.build_clib',
   '/usr/local/Cellar/python3/3.6.4/Frameworks/Python.framework/Versions/3.6/lib/python3.6/distutils/command/build_clib.py',
   'PYMODULE'),
  ('numpy.distutils.command.build_ext',
   '/usr/local/lib/python3.6/site-packages/numpy/distutils/command/build_ext.py',
   'PYMODULE'),
  ('numpy.distutils.command.build_py',
   '/usr/local/lib/python3.6/site-packages/numpy/distutils/command/build_py.py',
   'PYMODULE'),
  ('distutils.command.build_py',
   '/usr/local/Cellar/python3/3.6.4/Frameworks/Python.framework/Versions/3.6/lib/python3.6/distutils/command/build_py.py',
   'PYMODULE'),
  ('numpy.distutils.command.build',
   '/usr/local/lib/python3.6/site-packages/numpy/distutils/command/build.py',
   'PYMODULE'),
  ('distutils.command.build',
   '/usr/local/Cellar/python3/3.6.4/Frameworks/Python.framework/Versions/3.6/lib/python3.6/distutils/command/build.py',
   'PYMODULE'),
  ('numpy.distutils.environment',
   '/usr/local/lib/python3.6/site-packages/numpy/distutils/environment.py',
   'PYMODULE'),
  ('numpy.f2py.f2py_testing',
   '/usr/local/lib/python3.6/site-packages/numpy/f2py/f2py_testing.py',
   'PYMODULE'),
  ('numpy.f2py.f2py2e',
   '/usr/local/lib/python3.6/site-packages/numpy/f2py/f2py2e.py',
   'PYMODULE'),
  ('numpy.distutils.command.build_src',
   '/usr/local/lib/python3.6/site-packages/numpy/distutils/command/build_src.py',
   'PYMODULE'),
  ('numpy.distutils.conv_template',
   '/usr/local/lib/python3.6/site-packages/numpy/distutils/conv_template.py',
   'PYMODULE'),
  ('numpy.distutils.from_template',
   '/usr/local/lib/python3.6/site-packages/numpy/distutils/from_template.py',
   'PYMODULE'),
  ('numpy.f2py.auxfuncs',
   '/usr/local/lib/python3.6/site-packages/numpy/f2py/auxfuncs.py',
   'PYMODULE'),
  ('numpy.f2py.f90mod_rules',
   '/usr/local/lib/python3.6/site-packages/numpy/f2py/f90mod_rules.py',
   'PYMODULE'),
  ('numpy.f2py.rules',
   '/usr/local/lib/python3.6/site-packages/numpy/f2py/rules.py',
   'PYMODULE'),
  ('numpy.f2py.use_rules',
   '/usr/local/lib/python3.6/site-packages/numpy/f2py/use_rules.py',
   'PYMODULE'),
  ('numpy.f2py.common_rules',
   '/usr/local/lib/python3.6/site-packages/numpy/f2py/common_rules.py',
   'PYMODULE'),
  ('numpy.f2py.func2subr',
   '/usr/local/lib/python3.6/site-packages/numpy/f2py/func2subr.py',
   'PYMODULE'),
  ('numpy.f2py.crackfortran',
   '/usr/local/lib/python3.6/site-packages/numpy/f2py/crackfortran.py',
   'PYMODULE'),
  ('fileinput',
   '/usr/local/Cellar/python3/3.6.4/Frameworks/Python.framework/Versions/3.6/lib/python3.6/fileinput.py',
   'PYMODULE'),
  ('numpy.f2py.cb_rules',
   '/usr/local/lib/python3.6/site-packages/numpy/f2py/cb_rules.py',
   'PYMODULE'),
  ('numpy.f2py.capi_maps',
   '/usr/local/lib/python3.6/site-packages/numpy/f2py/capi_maps.py',
   'PYMODULE'),
  ('numpy.f2py.cfuncs',
   '/usr/local/lib/python3.6/site-packages/numpy/f2py/cfuncs.py',
   'PYMODULE'),
  ('numpy.f2py.__version__',
   '/usr/local/lib/python3.6/site-packages/numpy/f2py/__version__.py',
   'PYMODULE'),
  ('numpy.distutils.command.config',
   '/usr/local/lib/python3.6/site-packages/numpy/distutils/command/config.py',
   'PYMODULE'),
  ('numpy.distutils.command.autodist',
   '/usr/local/lib/python3.6/site-packages/numpy/distutils/command/autodist.py',
   'PYMODULE'),
  ('numpy.distutils.mingw32ccompiler',
   '/usr/local/lib/python3.6/site-packages/numpy/distutils/mingw32ccompiler.py',
   'PYMODULE'),
  ('distutils.cygwinccompiler',
   '/usr/local/Cellar/python3/3.6.4/Frameworks/Python.framework/Versions/3.6/lib/python3.6/distutils/cygwinccompiler.py',
   'PYMODULE'),
  ('distutils.command.config',
   '/usr/local/Cellar/python3/3.6.4/Frameworks/Python.framework/Versions/3.6/lib/python3.6/distutils/command/config.py',
   'PYMODULE'),
  ('numpy.distutils.exec_command',
   '/usr/local/lib/python3.6/site-packages/numpy/distutils/exec_command.py',
   'PYMODULE'),
  ('curses',
   '/usr/local/Cellar/python3/3.6.4/Frameworks/Python.framework/Versions/3.6/lib/python3.6/curses/__init__.py',
   'PYMODULE'),
  ('curses.has_key',
   '/usr/local/Cellar/python3/3.6.4/Frameworks/Python.framework/Versions/3.6/lib/python3.6/curses/has_key.py',
   'PYMODULE'),
  ('numpy.distutils.core',
   '/usr/local/lib/python3.6/site-packages/numpy/distutils/core.py',
   'PYMODULE'),
  ('numpy.distutils.numpy_distribution',
   '/usr/local/lib/python3.6/site-packages/numpy/distutils/numpy_distribution.py',
   'PYMODULE'),
  ('numpy.distutils.extension',
   '/usr/local/lib/python3.6/site-packages/numpy/distutils/extension.py',
   'PYMODULE'),
  ('distutils.msvccompiler',
   '/usr/local/Cellar/python3/3.6.4/Frameworks/Python.framework/Versions/3.6/lib/python3.6/distutils/msvccompiler.py',
   'PYMODULE'),
  ('distutils.unixccompiler',
   '/usr/local/Cellar/python3/3.6.4/Frameworks/Python.framework/Versions/3.6/lib/python3.6/distutils/unixccompiler.py',
   'PYMODULE'),
  ('numpy.distutils.ccompiler',
   '/usr/local/lib/python3.6/site-packages/numpy/distutils/ccompiler.py',
   'PYMODULE'),
  ('numpy.distutils.lib2def',
   '/usr/local/lib/python3.6/site-packages/numpy/distutils/lib2def.py',
   'PYMODULE'),
  ('numpy.distutils.log',
   '/usr/local/lib/python3.6/site-packages/numpy/distutils/log.py',
   'PYMODULE'),
  ('numpy.distutils.__version__',
   '/usr/local/lib/python3.6/site-packages/numpy/distutils/__version__.py',
   'PYMODULE'),
  ('numpy.testing.noseclasses',
   '/usr/local/lib/python3.6/site-packages/numpy/testing/noseclasses.py',
   'PYMODULE'),
  ('numpy.testing.utils',
   '/usr/local/lib/python3.6/site-packages/numpy/testing/utils.py',
   'PYMODULE'),
  ('numpy.core.fromnumeric',
   '/usr/local/lib/python3.6/site-packages/numpy/core/fromnumeric.py',
   'PYMODULE'),
  ('numpy.core._methods',
   '/usr/local/lib/python3.6/site-packages/numpy/core/_methods.py',
   'PYMODULE'),
  ('numpy.core.numeric',
   '/usr/local/lib/python3.6/site-packages/numpy/core/numeric.py',
   'PYMODULE'),
  ('numpy.core.arrayprint',
   '/usr/local/lib/python3.6/site-packages/numpy/core/arrayprint.py',
   'PYMODULE'),
  ('numpy.core._internal',
   '/usr/local/lib/python3.6/site-packages/numpy/core/_internal.py',
   'PYMODULE'),
  ('numpy.core.numerictypes',
   '/usr/local/lib/python3.6/site-packages/numpy/core/numerictypes.py',
   'PYMODULE'),
  ('numpy.lib.utils',
   '/usr/local/lib/python3.6/site-packages/numpy/lib/utils.py',
   'PYMODULE'),
  ('numpy.matrixlib.defmatrix',
   '/usr/local/lib/python3.6/site-packages/numpy/matrixlib/defmatrix.py',
   'PYMODULE'),
  ('numpy.dual',
   '/usr/local/lib/python3.6/site-packages/numpy/dual.py',
   'PYMODULE'),
  ('numpy.ma',
   '/usr/local/lib/python3.6/site-packages/numpy/ma/__init__.py',
   'PYMODULE'),
  ('numpy.ma.extras',
   '/usr/local/lib/python3.6/site-packages/numpy/ma/extras.py',
   'PYMODULE'),
  ('numpy.lib.index_tricks',
   '/usr/local/lib/python3.6/site-packages/numpy/lib/index_tricks.py',
   'PYMODULE'),
  ('numpy.lib.stride_tricks',
   '/usr/local/lib/python3.6/site-packages/numpy/lib/stride_tricks.py',
   'PYMODULE'),
  ('numpy.lib.function_base',
   '/usr/local/lib/python3.6/site-packages/numpy/lib/function_base.py',
   'PYMODULE'),
  ('numpy.compat.py3k',
   '/usr/local/lib/python3.6/site-packages/numpy/compat/py3k.py',
   'PYMODULE'),
  ('pathlib',
   '/usr/local/Cellar/python3/3.6.4/Frameworks/Python.framework/Versions/3.6/lib/python3.6/pathlib.py',
   'PYMODULE'),
  ('numpy.lib.twodim_base',
   '/usr/local/lib/python3.6/site-packages/numpy/lib/twodim_base.py',
   'PYMODULE'),
  ('numpy.ma.core',
   '/usr/local/lib/python3.6/site-packages/numpy/ma/core.py',
   'PYMODULE'),
  ('numpy.ctypeslib',
   '/usr/local/lib/python3.6/site-packages/numpy/ctypeslib.py',
   'PYMODULE'),
  ('numpy.random',
   '/usr/local/lib/python3.6/site-packages/numpy/random/__init__.py',
   'PYMODULE'),
  ('numpy.random.info',
   '/usr/local/lib/python3.6/site-packages/numpy/random/info.py',
   'PYMODULE'),
  ('numpy.polynomial',
   '/usr/local/lib/python3.6/site-packages/numpy/polynomial/__init__.py',
   'PYMODULE'),
  ('numpy.polynomial.laguerre',
   '/usr/local/lib/python3.6/site-packages/numpy/polynomial/laguerre.py',
   'PYMODULE'),
  ('numpy.polynomial._polybase',
   '/usr/local/lib/python3.6/site-packages/numpy/polynomial/_polybase.py',
   'PYMODULE'),
  ('numpy.polynomial.hermite_e',
   '/usr/local/lib/python3.6/site-packages/numpy/polynomial/hermite_e.py',
   'PYMODULE'),
  ('numpy.polynomial.hermite',
   '/usr/local/lib/python3.6/site-packages/numpy/polynomial/hermite.py',
   'PYMODULE'),
  ('numpy.polynomial.legendre',
   '/usr/local/lib/python3.6/site-packages/numpy/polynomial/legendre.py',
   'PYMODULE'),
  ('numpy.polynomial.chebyshev',
   '/usr/local/lib/python3.6/site-packages/numpy/polynomial/chebyshev.py',
   'PYMODULE'),
  ('numpy.polynomial.polynomial',
   '/usr/local/lib/python3.6/site-packages/numpy/polynomial/polynomial.py',
   'PYMODULE'),
  ('numpy.polynomial.polyutils',
   '/usr/local/lib/python3.6/site-packages/numpy/polynomial/polyutils.py',
   'PYMODULE'),
  ('numpy.fft',
   '/usr/local/lib/python3.6/site-packages/numpy/fft/__init__.py',
   'PYMODULE'),
  ('numpy.fft.helper',
   '/usr/local/lib/python3.6/site-packages/numpy/fft/helper.py',
   'PYMODULE'),
  ('numpy.fft.fftpack',
   '/usr/local/lib/python3.6/site-packages/numpy/fft/fftpack.py',
   'PYMODULE'),
  ('numpy.fft.info',
   '/usr/local/lib/python3.6/site-packages/numpy/fft/info.py',
   'PYMODULE'),
  ('numpy.linalg',
   '/usr/local/lib/python3.6/site-packages/numpy/linalg/__init__.py',
   'PYMODULE'),
  ('numpy.linalg.linalg',
   '/usr/local/lib/python3.6/site-packages/numpy/linalg/linalg.py',
   'PYMODULE'),
  ('numpy.linalg.info',
   '/usr/local/lib/python3.6/site-packages/numpy/linalg/info.py',
   'PYMODULE'),
  ('numpy.lib',
   '/usr/local/lib/python3.6/site-packages/numpy/lib/__init__.py',
   'PYMODULE'),
  ('numpy.lib._version',
   '/usr/local/lib/python3.6/site-packages/numpy/lib/_version.py',
   'PYMODULE'),
  ('numpy.lib.arraypad',
   '/usr/local/lib/python3.6/site-packages/numpy/lib/arraypad.py',
   'PYMODULE'),
  ('numpy.lib.arrayterator',
   '/usr/local/lib/python3.6/site-packages/numpy/lib/arrayterator.py',
   'PYMODULE'),
  ('numpy.lib.financial',
   '/usr/local/lib/python3.6/site-packages/numpy/lib/financial.py',
   'PYMODULE'),
  ('numpy.lib.npyio',
   '/usr/local/lib/python3.6/site-packages/numpy/lib/npyio.py',
   'PYMODULE'),
  ('numpy.ma.mrecords',
   '/usr/local/lib/python3.6/site-packages/numpy/ma/mrecords.py',
   'PYMODULE'),
  ('numpy.core.records',
   '/usr/local/lib/python3.6/site-packages/numpy/core/records.py',
   'PYMODULE'),
  ('numpy.lib._iotools',
   '/usr/local/lib/python3.6/site-packages/numpy/lib/_iotools.py',
   'PYMODULE'),
  ('numpy.lib._datasource',
   '/usr/local/lib/python3.6/site-packages/numpy/lib/_datasource.py',
   'PYMODULE'),
  ('numpy.lib.format',
   '/usr/local/lib/python3.6/site-packages/numpy/lib/format.py',
   'PYMODULE'),
  ('numpy.lib.arraysetops',
   '/usr/local/lib/python3.6/site-packages/numpy/lib/arraysetops.py',
   'PYMODULE'),
  ('numpy.lib.polynomial',
   '/usr/local/lib/python3.6/site-packages/numpy/lib/polynomial.py',
   'PYMODULE'),
  ('numpy.lib.scimath',
   '/usr/local/lib/python3.6/site-packages/numpy/lib/scimath.py',
   'PYMODULE'),
  ('numpy.lib.ufunclike',
   '/usr/local/lib/python3.6/site-packages/numpy/lib/ufunclike.py',
   'PYMODULE'),
  ('numpy.lib.shape_base',
   '/usr/local/lib/python3.6/site-packages/numpy/lib/shape_base.py',
   'PYMODULE'),
  ('numpy.lib.nanfunctions',
   '/usr/local/lib/python3.6/site-packages/numpy/lib/nanfunctions.py',
   'PYMODULE'),
  ('numpy.lib.mixins',
   '/usr/local/lib/python3.6/site-packages/numpy/lib/mixins.py',
   'PYMODULE'),
  ('numpy.lib.type_check',
   '/usr/local/lib/python3.6/site-packages/numpy/lib/type_check.py',
   'PYMODULE'),
  ('numpy.core.getlimits',
   '/usr/local/lib/python3.6/site-packages/numpy/core/getlimits.py',
   'PYMODULE'),
  ('numpy.core.machar',
   '/usr/local/lib/python3.6/site-packages/numpy/core/machar.py',
   'PYMODULE'),
  ('numpy.lib.info',
   '/usr/local/lib/python3.6/site-packages/numpy/lib/info.py',
   'PYMODULE'),
  ('numpy.compat',
   '/usr/local/lib/python3.6/site-packages/numpy/compat/__init__.py',
   'PYMODULE'),
  ('numpy.compat._inspect',
   '/usr/local/lib/python3.6/site-packages/numpy/compat/_inspect.py',
   'PYMODULE'),
  ('numpy.core',
   '/usr/local/lib/python3.6/site-packages/numpy/core/__init__.py',
   'PYMODULE'),
  ('numpy.core.einsumfunc',
   '/usr/local/lib/python3.6/site-packages/numpy/core/einsumfunc.py',
   'PYMODULE'),
  ('numpy.core.shape_base',
   '/usr/local/lib/python3.6/site-packages/numpy/core/shape_base.py',
   'PYMODULE'),
  ('numpy.core.function_base',
   '/usr/local/lib/python3.6/site-packages/numpy/core/function_base.py',
   'PYMODULE'),
  ('numpy.core.memmap',
   '/usr/local/lib/python3.6/site-packages/numpy/core/memmap.py',
   'PYMODULE'),
  ('numpy.core.defchararray',
   '/usr/local/lib/python3.6/site-packages/numpy/core/defchararray.py',
   'PYMODULE'),
  ('numpy.core.info',
   '/usr/local/lib/python3.6/site-packages/numpy/core/info.py',
   'PYMODULE'),
  ('numpy._distributor_init',
   '/usr/local/lib/python3.6/site-packages/numpy/_distributor_init.py',
   'PYMODULE'),
  ('numpy.testing',
   '/usr/local/lib/python3.6/site-packages/numpy/testing/__init__.py',
   'PYMODULE'),
  ('numpy.testing.decorators',
   '/usr/local/lib/python3.6/site-packages/numpy/testing/decorators.py',
   'PYMODULE'),
  ('numpy.add_newdocs',
   '/usr/local/lib/python3.6/site-packages/numpy/add_newdocs.py',
   'PYMODULE'),
  ('numpy._import_tools',
   '/usr/local/lib/python3.6/site-packages/numpy/_import_tools.py',
   'PYMODULE'),
  ('numpy.version',
   '/usr/local/lib/python3.6/site-packages/numpy/version.py',
   'PYMODULE'),
  ('numpy.__config__',
   '/usr/local/lib/python3.6/site-packages/numpy/__config__.py',
   'PYMODULE'),
  ('numpy._globals',
   '/usr/local/lib/python3.6/site-packages/numpy/_globals.py',
   'PYMODULE'),
  ('timer',
   '/Users/michaeltreiman/TheBlackOfSpaceTestBranch/timer.py',
   'PYMODULE'),
  ('pulsar',
   '/Users/michaeltreiman/TheBlackOfSpaceTestBranch/pulsar.py',
   'PYMODULE'),
  ('planet',
   '/Users/michaeltreiman/TheBlackOfSpaceTestBranch/planet.py',
   'PYMODULE'),
  ('comet',
   '/Users/michaeltreiman/TheBlackOfSpaceTestBranch/comet.py',
   'PYMODULE'),
  ('starfield',
   '/Users/michaeltreiman/TheBlackOfSpaceTestBranch/starfield.py',
   'PYMODULE'),
  ('asteroid_pixel',
   '/Users/michaeltreiman/TheBlackOfSpaceTestBranch/asteroid_pixel.py',
   'PYMODULE'),
  ('asteroid',
   '/Users/michaeltreiman/TheBlackOfSpaceTestBranch/asteroid.py',
   'PYMODULE'),
  ('ship',
   '/Users/michaeltreiman/TheBlackOfSpaceTestBranch/ship.py',
   'PYMODULE'),
  ('debris',
   '/Users/michaeltreiman/TheBlackOfSpaceTestBranch/debris.py',
   'PYMODULE'),
  ('settings',
   '/Users/michaeltreiman/TheBlackOfSpaceTestBranch/settings.py',
   'PYMODULE'),
  ('state',
   '/Users/michaeltreiman/TheBlackOfSpaceTestBranch/state.py',
   'PYMODULE'),
  ('button2',
   '/Users/michaeltreiman/TheBlackOfSpaceTestBranch/button2.py',
   'PYMODULE'),
  ('game_functions',
   '/Users/michaeltreiman/TheBlackOfSpaceTestBranch/game_functions.py',
   'PYMODULE'),
  ('shelve',
   '/usr/local/Cellar/python3/3.6.4/Frameworks/Python.framework/Versions/3.6/lib/python3.6/shelve.py',
   'PYMODULE'),
  ('dbm.gnu',
   '/usr/local/Cellar/python3/3.6.4/Frameworks/Python.framework/Versions/3.6/lib/python3.6/dbm/gnu.py',
   'PYMODULE'),
  ('dbm.dumb',
   '/usr/local/Cellar/python3/3.6.4/Frameworks/Python.framework/Versions/3.6/lib/python3.6/dbm/dumb.py',
   'PYMODULE'),
  ('dbm.ndbm',
   '/usr/local/Cellar/python3/3.6.4/Frameworks/Python.framework/Versions/3.6/lib/python3.6/dbm/ndbm.py',
   'PYMODULE'),
  ('dbm',
   '/usr/local/Cellar/python3/3.6.4/Frameworks/Python.framework/Versions/3.6/lib/python3.6/dbm/__init__.py',
   'PYMODULE'),
  ('exhaust',
   '/Users/michaeltreiman/TheBlackOfSpaceTestBranch/exhaust.py',
   'PYMODULE'),
  ('charge',
   '/Users/michaeltreiman/TheBlackOfSpaceTestBranch/charge.py',
   'PYMODULE'),
  ('bullet',
   '/Users/michaeltreiman/TheBlackOfSpaceTestBranch/bullet.py',
   'PYMODULE'),
  ('pygame.sprite',
   '/Users/michaeltreiman/Library/Python/3.6/lib/python/site-packages/pygame/sprite.py',
   'PYMODULE'),
  ('pygame',
   '/Users/michaeltreiman/Library/Python/3.6/lib/python/site-packages/pygame/__init__.py',
   'PYMODULE'),
  ('pygame.colordict',
   '/Users/michaeltreiman/Library/Python/3.6/lib/python/site-packages/pygame/colordict.py',
   'PYMODULE'),
  ('pygame.macosx',
   '/Users/michaeltreiman/Library/Python/3.6/lib/python/site-packages/pygame/macosx.py',
   'PYMODULE'),
  ('pygame.pkgdata',
   '/Users/michaeltreiman/Library/Python/3.6/lib/python/site-packages/pygame/pkgdata.py',
   'PYMODULE'),
  ('pygame.sndarray',
   '/Users/michaeltreiman/Library/Python/3.6/lib/python/site-packages/pygame/sndarray.py',
   'PYMODULE'),
  ('pygame._numpysndarray',
   '/Users/michaeltreiman/Library/Python/3.6/lib/python/site-packages/pygame/_numpysndarray.py',
   'PYMODULE'),
  ('pygame.surfarray',
   '/Users/michaeltreiman/Library/Python/3.6/lib/python/site-packages/pygame/surfarray.py',
   'PYMODULE'),
  ('pygame._numpysurfarray',
   '/Users/michaeltreiman/Library/Python/3.6/lib/python/site-packages/pygame/_numpysurfarray.py',
   'PYMODULE'),
  ('pygame.sysfont',
   '/Users/michaeltreiman/Library/Python/3.6/lib/python/site-packages/pygame/sysfont.py',
   'PYMODULE'),
  ('pygame.ftfont',
   '/Users/michaeltreiman/Library/Python/3.6/lib/python/site-packages/pygame/ftfont.py',
   'PYMODULE'),
  ('pygame.threads',
   '/Users/michaeltreiman/Library/Python/3.6/lib/python/site-packages/pygame/threads/__init__.py',
   'PYMODULE'),
  ('pygame.cursors',
   '/Users/michaeltreiman/Library/Python/3.6/lib/python/site-packages/pygame/cursors.py',
   'PYMODULE'),
  ('pygame.compat',
   '/Users/michaeltreiman/Library/Python/3.6/lib/python/site-packages/pygame/compat.py',
   'PYMODULE'),
  ('pygame.version',
   '/Users/michaeltreiman/Library/Python/3.6/lib/python/site-packages/pygame/version.py',
   'PYMODULE'),
  ('ttt_client',
   '/Users/michaeltreiman/TheBlackOfSpaceTestBranch/ttt_client.py',
   'PYMODULE'),
  ('ttt_server',
   '/Users/michaeltreiman/TheBlackOfSpaceTestBranch/ttt_server.py',
   'PYMODULE'),
  ('tkinter.messagebox',
   '/usr/local/Cellar/python3/3.6.4/Frameworks/Python.framework/Versions/3.6/lib/python3.6/tkinter/messagebox.py',
   'PYMODULE'),
  ('tkinter.commondialog',
   '/usr/local/Cellar/python3/3.6.4/Frameworks/Python.framework/Versions/3.6/lib/python3.6/tkinter/commondialog.py',
   'PYMODULE'),
  ('tkinter',
   '/usr/local/Cellar/python3/3.6.4/Frameworks/Python.framework/Versions/3.6/lib/python3.6/tkinter/__init__.py',
   'PYMODULE'),
  ('tkinter.constants',
   '/usr/local/Cellar/python3/3.6.4/Frameworks/Python.framework/Versions/3.6/lib/python3.6/tkinter/constants.py',
   'PYMODULE')])
