('/Users/michaeltreiman/TheBlackOfSpaceTestBranch/build/AsteroidRacer/out00-PKG.pkg',
 {'BINARY': 1,
  'DATA': 1,
  'EXECUTABLE': 1,
  'EXTENSION': 1,
  'PYMODULE': 1,
  'PYSOURCE': 1,
  'PYZ': 0},
 [('out00-PYZ.pyz',
   '/Users/michaeltreiman/TheBlackOfSpaceTestBranch/build/AsteroidRacer/out00-PYZ.pyz',
   'PYZ'),
  ('_struct',
   '/usr/local/Cellar/python3/3.6.4/Frameworks/Python.framework/Versions/3.6/lib/python3.6/lib-dynload/_struct.cpython-36m-darwin.so',
   'EXTENSION'),
  ('zlib',
   '/usr/local/Cellar/python3/3.6.4/Frameworks/Python.framework/Versions/3.6/lib/python3.6/lib-dynload/zlib.cpython-36m-darwin.so',
   'EXTENSION'),
  ('struct',
   '/usr/local/Cellar/python3/3.6.4/Frameworks/Python.framework/Versions/3.6/lib/python3.6/struct.pyo',
   'PYMODULE'),
  ('pyimod01_os_path',
   '/usr/local/lib/python3.6/site-packages/PyInstaller/loader/pyimod01_os_path.pyc',
   'PYMODULE'),
  ('pyimod02_archive',
   '/usr/local/lib/python3.6/site-packages/PyInstaller/loader/pyimod02_archive.pyc',
   'PYMODULE'),
  ('pyimod03_importers',
   '/usr/local/lib/python3.6/site-packages/PyInstaller/loader/pyimod03_importers.pyc',
   'PYMODULE'),
  ('pyiboot01_bootstrap',
   '/usr/local/lib/python3.6/site-packages/PyInstaller/loader/pyiboot01_bootstrap.py',
   'PYSOURCE'),
  ('pyi_rth_multiprocessing',
   '/usr/local/lib/python3.6/site-packages/PyInstaller/loader/rthooks/pyi_rth_multiprocessing.py',
   'PYSOURCE'),
  ('pyi_rth_pkgres',
   '/usr/local/lib/python3.6/site-packages/PyInstaller/loader/rthooks/pyi_rth_pkgres.py',
   'PYSOURCE'),
  ('pyi_rth__tkinter',
   '/usr/local/lib/python3.6/site-packages/PyInstaller/loader/rthooks/pyi_rth__tkinter.py',
   'PYSOURCE'),
  ('AsteroidRacer',
   '/Users/michaeltreiman/TheBlackOfSpaceTestBranch/AsteroidRacer.py',
   'PYSOURCE')],
 True,
 False,
 False)
