([('AsteroidRacer',
   '/Users/michaeltreiman/TheBlackOfSpaceTestBranch/build/AsteroidRacer/AsteroidRacer',
   'EXECUTABLE'),
  ('Python',
   '/usr/local/Cellar/python3/3.6.4/Frameworks/Python.framework/Versions/3.6/Python',
   'BINARY'),
  ('array',
   '/usr/local/Cellar/python3/3.6.4/Frameworks/Python.framework/Versions/3.6/lib/python3.6/lib-dynload/array.cpython-36m-darwin.so',
   'EXTENSION'),
  ('_ctypes',
   '/usr/local/Cellar/python3/3.6.4/Frameworks/Python.framework/Versions/3.6/lib/python3.6/lib-dynload/_ctypes.cpython-36m-darwin.so',
   'EXTENSION'),
  ('_multiprocessing',
   '/usr/local/Cellar/python3/3.6.4/Frameworks/Python.framework/Versions/3.6/lib/python3.6/lib-dynload/_multiprocessing.cpython-36m-darwin.so',
   'EXTENSION'),
  ('_decimal',
   '/usr/local/Cellar/python3/3.6.4/Frameworks/Python.framework/Versions/3.6/lib/python3.6/lib-dynload/_decimal.cpython-36m-darwin.so',
   'EXTENSION'),
  ('mmap',
   '/usr/local/Cellar/python3/3.6.4/Frameworks/Python.framework/Versions/3.6/lib/python3.6/lib-dynload/mmap.cpython-36m-darwin.so',
   'EXTENSION'),
  ('resource',
   '/usr/local/Cellar/python3/3.6.4/Frameworks/Python.framework/Versions/3.6/lib/python3.6/lib-dynload/resource.cpython-36m-darwin.so',
   'EXTENSION'),
  ('_pickle',
   '/usr/local/Cellar/python3/3.6.4/Frameworks/Python.framework/Versions/3.6/lib/python3.6/lib-dynload/_pickle.cpython-36m-darwin.so',
   'EXTENSION'),
  ('_posixsubprocess',
   '/usr/local/Cellar/python3/3.6.4/Frameworks/Python.framework/Versions/3.6/lib/python3.6/lib-dynload/_posixsubprocess.cpython-36m-darwin.so',
   'EXTENSION'),
  ('_datetime',
   '/usr/local/Cellar/python3/3.6.4/Frameworks/Python.framework/Versions/3.6/lib/python3.6/lib-dynload/_datetime.cpython-36m-darwin.so',
   'EXTENSION'),
  ('_ssl',
   '/usr/local/Cellar/python3/3.6.4/Frameworks/Python.framework/Versions/3.6/lib/python3.6/lib-dynload/_ssl.cpython-36m-darwin.so',
   'EXTENSION'),
  ('_heapq',
   '/usr/local/Cellar/python3/3.6.4/Frameworks/Python.framework/Versions/3.6/lib/python3.6/lib-dynload/_heapq.cpython-36m-darwin.so',
   'EXTENSION'),
  ('_codecs_tw',
   '/usr/local/Cellar/python3/3.6.4/Frameworks/Python.framework/Versions/3.6/lib/python3.6/lib-dynload/_codecs_tw.cpython-36m-darwin.so',
   'EXTENSION'),
  ('unicodedata',
   '/usr/local/Cellar/python3/3.6.4/Frameworks/Python.framework/Versions/3.6/lib/python3.6/lib-dynload/unicodedata.cpython-36m-darwin.so',
   'EXTENSION'),
  ('_codecs_hk',
   '/usr/local/Cellar/python3/3.6.4/Frameworks/Python.framework/Versions/3.6/lib/python3.6/lib-dynload/_codecs_hk.cpython-36m-darwin.so',
   'EXTENSION'),
  ('_codecs_kr',
   '/usr/local/Cellar/python3/3.6.4/Frameworks/Python.framework/Versions/3.6/lib/python3.6/lib-dynload/_codecs_kr.cpython-36m-darwin.so',
   'EXTENSION'),
  ('_codecs_cn',
   '/usr/local/Cellar/python3/3.6.4/Frameworks/Python.framework/Versions/3.6/lib/python3.6/lib-dynload/_codecs_cn.cpython-36m-darwin.so',
   'EXTENSION'),
  ('_codecs_iso2022',
   '/usr/local/Cellar/python3/3.6.4/Frameworks/Python.framework/Versions/3.6/lib/python3.6/lib-dynload/_codecs_iso2022.cpython-36m-darwin.so',
   'EXTENSION'),
  ('_codecs_jp',
   '/usr/local/Cellar/python3/3.6.4/Frameworks/Python.framework/Versions/3.6/lib/python3.6/lib-dynload/_codecs_jp.cpython-36m-darwin.so',
   'EXTENSION'),
  ('_multibytecodec',
   '/usr/local/Cellar/python3/3.6.4/Frameworks/Python.framework/Versions/3.6/lib/python3.6/lib-dynload/_multibytecodec.cpython-36m-darwin.so',
   'EXTENSION'),
  ('_struct',
   '/usr/local/Cellar/python3/3.6.4/Frameworks/Python.framework/Versions/3.6/lib/python3.6/lib-dynload/_struct.cpython-36m-darwin.so',
   'EXTENSION'),
  ('_opcode',
   '/usr/local/Cellar/python3/3.6.4/Frameworks/Python.framework/Versions/3.6/lib/python3.6/lib-dynload/_opcode.cpython-36m-darwin.so',
   'EXTENSION'),
  ('readline',
   '/usr/local/Cellar/python3/3.6.4/Frameworks/Python.framework/Versions/3.6/lib/python3.6/lib-dynload/readline.cpython-36m-darwin.so',
   'EXTENSION'),
  ('pyexpat',
   '/usr/local/Cellar/python3/3.6.4/Frameworks/Python.framework/Versions/3.6/lib/python3.6/lib-dynload/pyexpat.cpython-36m-darwin.so',
   'EXTENSION'),
  ('_scproxy',
   '/usr/local/Cellar/python3/3.6.4/Frameworks/Python.framework/Versions/3.6/lib/python3.6/lib-dynload/_scproxy.cpython-36m-darwin.so',
   'EXTENSION'),
  ('termios',
   '/usr/local/Cellar/python3/3.6.4/Frameworks/Python.framework/Versions/3.6/lib/python3.6/lib-dynload/termios.cpython-36m-darwin.so',
   'EXTENSION'),
  ('_sha1',
   '/usr/local/Cellar/python3/3.6.4/Frameworks/Python.framework/Versions/3.6/lib/python3.6/lib-dynload/_sha1.cpython-36m-darwin.so',
   'EXTENSION'),
  ('_md5',
   '/usr/local/Cellar/python3/3.6.4/Frameworks/Python.framework/Versions/3.6/lib/python3.6/lib-dynload/_md5.cpython-36m-darwin.so',
   'EXTENSION'),
  ('_sha256',
   '/usr/local/Cellar/python3/3.6.4/Frameworks/Python.framework/Versions/3.6/lib/python3.6/lib-dynload/_sha256.cpython-36m-darwin.so',
   'EXTENSION'),
  ('_sha512',
   '/usr/local/Cellar/python3/3.6.4/Frameworks/Python.framework/Versions/3.6/lib/python3.6/lib-dynload/_sha512.cpython-36m-darwin.so',
   'EXTENSION'),
  ('_blake2',
   '/usr/local/Cellar/python3/3.6.4/Frameworks/Python.framework/Versions/3.6/lib/python3.6/lib-dynload/_blake2.cpython-36m-darwin.so',
   'EXTENSION'),
  ('_sha3',
   '/usr/local/Cellar/python3/3.6.4/Frameworks/Python.framework/Versions/3.6/lib/python3.6/lib-dynload/_sha3.cpython-36m-darwin.so',
   'EXTENSION'),
  ('_hashlib',
   '/usr/local/Cellar/python3/3.6.4/Frameworks/Python.framework/Versions/3.6/lib/python3.6/lib-dynload/_hashlib.cpython-36m-darwin.so',
   'EXTENSION'),
  ('_bisect',
   '/usr/local/Cellar/python3/3.6.4/Frameworks/Python.framework/Versions/3.6/lib/python3.6/lib-dynload/_bisect.cpython-36m-darwin.so',
   'EXTENSION'),
  ('_random',
   '/usr/local/Cellar/python3/3.6.4/Frameworks/Python.framework/Versions/3.6/lib/python3.6/lib-dynload/_random.cpython-36m-darwin.so',
   'EXTENSION'),
  ('zlib',
   '/usr/local/Cellar/python3/3.6.4/Frameworks/Python.framework/Versions/3.6/lib/python3.6/lib-dynload/zlib.cpython-36m-darwin.so',
   'EXTENSION'),
  ('_bz2',
   '/usr/local/Cellar/python3/3.6.4/Frameworks/Python.framework/Versions/3.6/lib/python3.6/lib-dynload/_bz2.cpython-36m-darwin.so',
   'EXTENSION'),
  ('_lzma',
   '/usr/local/Cellar/python3/3.6.4/Frameworks/Python.framework/Versions/3.6/lib/python3.6/lib-dynload/_lzma.cpython-36m-darwin.so',
   'EXTENSION'),
  ('grp',
   '/usr/local/Cellar/python3/3.6.4/Frameworks/Python.framework/Versions/3.6/lib/python3.6/lib-dynload/grp.cpython-36m-darwin.so',
   'EXTENSION'),
  ('binascii',
   '/usr/local/Cellar/python3/3.6.4/Frameworks/Python.framework/Versions/3.6/lib/python3.6/lib-dynload/binascii.cpython-36m-darwin.so',
   'EXTENSION'),
  ('_socket',
   '/usr/local/Cellar/python3/3.6.4/Frameworks/Python.framework/Versions/3.6/lib/python3.6/lib-dynload/_socket.cpython-36m-darwin.so',
   'EXTENSION'),
  ('select',
   '/usr/local/Cellar/python3/3.6.4/Frameworks/Python.framework/Versions/3.6/lib/python3.6/lib-dynload/select.cpython-36m-darwin.so',
   'EXTENSION'),
  ('math',
   '/usr/local/Cellar/python3/3.6.4/Frameworks/Python.framework/Versions/3.6/lib/python3.6/lib-dynload/math.cpython-36m-darwin.so',
   'EXTENSION'),
  ('pygame.font',
   '/Users/michaeltreiman/Library/Python/3.6/lib/python/site-packages/pygame/font.cpython-36m-darwin.so',
   'EXTENSION'),
  ('syslog',
   '/usr/local/Cellar/python3/3.6.4/Frameworks/Python.framework/Versions/3.6/lib/python3.6/lib-dynload/syslog.cpython-36m-darwin.so',
   'EXTENSION'),
  ('_curses',
   '/usr/local/Cellar/python3/3.6.4/Frameworks/Python.framework/Versions/3.6/lib/python3.6/lib-dynload/_curses.cpython-36m-darwin.so',
   'EXTENSION'),
  ('numpy.core.umath',
   '/usr/local/lib/python3.6/site-packages/numpy/core/umath.cpython-36m-darwin.so',
   'EXTENSION'),
  ('numpy.core.multiarray',
   '/usr/local/lib/python3.6/site-packages/numpy/core/multiarray.cpython-36m-darwin.so',
   'EXTENSION'),
  ('numpy.random.mtrand',
   '/usr/local/lib/python3.6/site-packages/numpy/random/mtrand.cpython-36m-darwin.so',
   'EXTENSION'),
  ('numpy.fft.fftpack_lite',
   '/usr/local/lib/python3.6/site-packages/numpy/fft/fftpack_lite.cpython-36m-darwin.so',
   'EXTENSION'),
  ('numpy.linalg._umath_linalg',
   '/usr/local/lib/python3.6/site-packages/numpy/linalg/_umath_linalg.cpython-36m-darwin.so',
   'EXTENSION'),
  ('numpy.linalg.lapack_lite',
   '/usr/local/lib/python3.6/site-packages/numpy/linalg/lapack_lite.cpython-36m-darwin.so',
   'EXTENSION'),
  ('_gdbm',
   '/usr/local/Cellar/python3/3.6.4/Frameworks/Python.framework/Versions/3.6/lib/python3.6/lib-dynload/_gdbm.cpython-36m-darwin.so',
   'EXTENSION'),
  ('_dbm',
   '/usr/local/Cellar/python3/3.6.4/Frameworks/Python.framework/Versions/3.6/lib/python3.6/lib-dynload/_dbm.cpython-36m-darwin.so',
   'EXTENSION'),
  ('pygame.mask',
   '/Users/michaeltreiman/Library/Python/3.6/lib/python/site-packages/pygame/mask.cpython-36m-darwin.so',
   'EXTENSION'),
  ('pygame.time',
   '/Users/michaeltreiman/Library/Python/3.6/lib/python/site-packages/pygame/time.cpython-36m-darwin.so',
   'EXTENSION'),
  ('pygame.sdlmain_osx',
   '/Users/michaeltreiman/Library/Python/3.6/lib/python/site-packages/pygame/sdlmain_osx.cpython-36m-darwin.so',
   'EXTENSION'),
  ('pygame.imageext',
   '/Users/michaeltreiman/Library/Python/3.6/lib/python/site-packages/pygame/imageext.cpython-36m-darwin.so',
   'EXTENSION'),
  ('pygame.fastevent',
   '/Users/michaeltreiman/Library/Python/3.6/lib/python/site-packages/pygame/fastevent.cpython-36m-darwin.so',
   'EXTENSION'),
  ('pygame.scrap',
   '/Users/michaeltreiman/Library/Python/3.6/lib/python/site-packages/pygame/scrap.cpython-36m-darwin.so',
   'EXTENSION'),
  ('pygame.mixer',
   '/Users/michaeltreiman/Library/Python/3.6/lib/python/site-packages/pygame/mixer.cpython-36m-darwin.so',
   'EXTENSION'),
  ('pygame.mixer_music',
   '/Users/michaeltreiman/Library/Python/3.6/lib/python/site-packages/pygame/mixer_music.cpython-36m-darwin.so',
   'EXTENSION'),
  ('pygame._freetype',
   '/Users/michaeltreiman/Library/Python/3.6/lib/python/site-packages/pygame/_freetype.cpython-36m-darwin.so',
   'EXTENSION'),
  ('pygame.transform',
   '/Users/michaeltreiman/Library/Python/3.6/lib/python/site-packages/pygame/transform.cpython-36m-darwin.so',
   'EXTENSION'),
  ('pygame.overlay',
   '/Users/michaeltreiman/Library/Python/3.6/lib/python/site-packages/pygame/overlay.cpython-36m-darwin.so',
   'EXTENSION'),
  ('pygame.pixelarray',
   '/Users/michaeltreiman/Library/Python/3.6/lib/python/site-packages/pygame/pixelarray.cpython-36m-darwin.so',
   'EXTENSION'),
  ('pygame.surface',
   '/Users/michaeltreiman/Library/Python/3.6/lib/python/site-packages/pygame/surface.cpython-36m-darwin.so',
   'EXTENSION'),
  ('pygame.pixelcopy',
   '/Users/michaeltreiman/Library/Python/3.6/lib/python/site-packages/pygame/pixelcopy.cpython-36m-darwin.so',
   'EXTENSION'),
  ('pygame.mouse',
   '/Users/michaeltreiman/Library/Python/3.6/lib/python/site-packages/pygame/mouse.cpython-36m-darwin.so',
   'EXTENSION'),
  ('pygame.key',
   '/Users/michaeltreiman/Library/Python/3.6/lib/python/site-packages/pygame/key.cpython-36m-darwin.so',
   'EXTENSION'),
  ('pygame.joystick',
   '/Users/michaeltreiman/Library/Python/3.6/lib/python/site-packages/pygame/joystick.cpython-36m-darwin.so',
   'EXTENSION'),
  ('pygame.image',
   '/Users/michaeltreiman/Library/Python/3.6/lib/python/site-packages/pygame/image.cpython-36m-darwin.so',
   'EXTENSION'),
  ('pygame.event',
   '/Users/michaeltreiman/Library/Python/3.6/lib/python/site-packages/pygame/event.cpython-36m-darwin.so',
   'EXTENSION'),
  ('pygame.draw',
   '/Users/michaeltreiman/Library/Python/3.6/lib/python/site-packages/pygame/draw.cpython-36m-darwin.so',
   'EXTENSION'),
  ('pygame.display',
   '/Users/michaeltreiman/Library/Python/3.6/lib/python/site-packages/pygame/display.cpython-36m-darwin.so',
   'EXTENSION'),
  ('pygame.cdrom',
   '/Users/michaeltreiman/Library/Python/3.6/lib/python/site-packages/pygame/cdrom.cpython-36m-darwin.so',
   'EXTENSION'),
  ('pygame.math',
   '/Users/michaeltreiman/Library/Python/3.6/lib/python/site-packages/pygame/math.cpython-36m-darwin.so',
   'EXTENSION'),
  ('pygame.bufferproxy',
   '/Users/michaeltreiman/Library/Python/3.6/lib/python/site-packages/pygame/bufferproxy.cpython-36m-darwin.so',
   'EXTENSION'),
  ('pygame.color',
   '/Users/michaeltreiman/Library/Python/3.6/lib/python/site-packages/pygame/color.cpython-36m-darwin.so',
   'EXTENSION'),
  ('pygame.surflock',
   '/Users/michaeltreiman/Library/Python/3.6/lib/python/site-packages/pygame/surflock.cpython-36m-darwin.so',
   'EXTENSION'),
  ('pygame.rwobject',
   '/Users/michaeltreiman/Library/Python/3.6/lib/python/site-packages/pygame/rwobject.cpython-36m-darwin.so',
   'EXTENSION'),
  ('pygame.rect',
   '/Users/michaeltreiman/Library/Python/3.6/lib/python/site-packages/pygame/rect.cpython-36m-darwin.so',
   'EXTENSION'),
  ('pygame.constants',
   '/Users/michaeltreiman/Library/Python/3.6/lib/python/site-packages/pygame/constants.cpython-36m-darwin.so',
   'EXTENSION'),
  ('pygame.base',
   '/Users/michaeltreiman/Library/Python/3.6/lib/python/site-packages/pygame/base.cpython-36m-darwin.so',
   'EXTENSION'),
  ('_tkinter',
   '/usr/local/Cellar/python3/3.6.4/Frameworks/Python.framework/Versions/3.6/lib/python3.6/lib-dynload/_tkinter.cpython-36m-darwin.so',
   'EXTENSION'),
  ('libssl.1.0.0.dylib',
   '/usr/local/opt/openssl/lib/libssl.1.0.0.dylib',
   'BINARY'),
  ('libcrypto.1.0.0.dylib',
   '/usr/local/opt/openssl/lib/libcrypto.1.0.0.dylib',
   'BINARY'),
  ('libreadline.7.dylib',
   '/usr/local/opt/readline/lib/libreadline.7.dylib',
   'BINARY'),
  ('liblzma.5.dylib', '/usr/local/opt/xz/lib/liblzma.5.dylib', 'BINARY'),
  ('libSDL_ttf-2.0.0.dylib',
   '/usr/local/opt/sdl_ttf/lib/libSDL_ttf-2.0.0.dylib',
   'BINARY'),
  ('libSDL-1.2.0.dylib', '/usr/local/opt/sdl/lib/libSDL-1.2.0.dylib', 'BINARY'),
  ('libgdbm.4.dylib', '/usr/local/opt/gdbm/lib/libgdbm.4.dylib', 'BINARY'),
  ('libpng16.16.dylib',
   '/usr/local/opt/libpng/lib/libpng16.16.dylib',
   'BINARY'),
  ('libjpeg.9.dylib', '/usr/local/opt/jpeg/lib/libjpeg.9.dylib', 'BINARY'),
  ('libSDL_image-1.2.0.dylib',
   '/usr/local/opt/sdl_image/lib/libSDL_image-1.2.0.dylib',
   'BINARY'),
  ('libSDL_mixer-1.2.0.dylib',
   '/usr/local/opt/sdl_mixer/lib/libSDL_mixer-1.2.0.dylib',
   'BINARY'),
  ('libfreetype.6.dylib',
   '/usr/local/opt/freetype/lib/libfreetype.6.dylib',
   'BINARY'),
  ('libwebp.7.dylib', '/usr/local/opt/webp/lib/libwebp.7.dylib', 'BINARY'),
  ('libtiff.5.dylib', '/usr/local/opt/libtiff/lib/libtiff.5.dylib', 'BINARY'),
  ('libvorbis.0.dylib',
   '/usr/local/opt/libvorbis/lib/libvorbis.0.dylib',
   'BINARY'),
  ('libogg.0.dylib', '/usr/local/opt/libogg/lib/libogg.0.dylib', 'BINARY'),
  ('libmikmod.3.dylib',
   '/usr/local/opt/libmikmod/lib/libmikmod.3.dylib',
   'BINARY'),
  ('libvorbisfile.3.dylib',
   '/usr/local/opt/libvorbis/lib/libvorbisfile.3.dylib',
   'BINARY'),
  ('data/dont_stop_the_music.ogg', 'data/dont_stop_the_music.ogg', 'DATA'),
  ('data/OpenSans-Regular.ttf', 'data/OpenSans-Regular.ttf', 'DATA'),
  ('base_library.zip',
   '/Users/michaeltreiman/TheBlackOfSpaceTestBranch/build/AsteroidRacer/base_library.zip',
   'DATA'),
  ('tcl/encoding/iso8859-4.enc',
   '/System/Library/Frameworks/Tcl.framework/Versions/8.5/Resources/Scripts/encoding/iso8859-4.enc',
   'DATA'),
  ('tcl/auto.tcl',
   '/System/Library/Frameworks/Tcl.framework/Versions/8.5/Resources/Scripts/auto.tcl',
   'DATA'),
  ('tk/ttk/defaults.tcl',
   '/System/Library/Frameworks/Tk.framework/Versions/8.5/Resources/Scripts/ttk/defaults.tcl',
   'DATA'),
  ('tcl/msgs/nl_be.msg',
   '/System/Library/Frameworks/Tcl.framework/Versions/8.5/Resources/Scripts/msgs/nl_be.msg',
   'DATA'),
  ('tcl/msgs/en_hk.msg',
   '/System/Library/Frameworks/Tcl.framework/Versions/8.5/Resources/Scripts/msgs/en_hk.msg',
   'DATA'),
  ('tcl/encoding/gb1988.enc',
   '/System/Library/Frameworks/Tcl.framework/Versions/8.5/Resources/Scripts/encoding/gb1988.enc',
   'DATA'),
  ('tcl/encoding/iso8859-7.enc',
   '/System/Library/Frameworks/Tcl.framework/Versions/8.5/Resources/Scripts/encoding/iso8859-7.enc',
   'DATA'),
  ('tcl/msgs/sl.msg',
   '/System/Library/Frameworks/Tcl.framework/Versions/8.5/Resources/Scripts/msgs/sl.msg',
   'DATA'),
  ('tcl/encoding/iso2022-kr.enc',
   '/System/Library/Frameworks/Tcl.framework/Versions/8.5/Resources/Scripts/encoding/iso2022-kr.enc',
   'DATA'),
  ('tcl/encoding/gb2312.enc',
   '/System/Library/Frameworks/Tcl.framework/Versions/8.5/Resources/Scripts/encoding/gb2312.enc',
   'DATA'),
  ('tk/msgs/en.msg',
   '/System/Library/Frameworks/Tk.framework/Versions/8.5/Resources/Scripts/msgs/en.msg',
   'DATA'),
  ('tcl/msgs/es_py.msg',
   '/System/Library/Frameworks/Tcl.framework/Versions/8.5/Resources/Scripts/msgs/es_py.msg',
   'DATA'),
  ('tcl/msgs/nb.msg',
   '/System/Library/Frameworks/Tcl.framework/Versions/8.5/Resources/Scripts/msgs/nb.msg',
   'DATA'),
  ('tcl/msgs/gl.msg',
   '/System/Library/Frameworks/Tcl.framework/Versions/8.5/Resources/Scripts/msgs/gl.msg',
   'DATA'),
  ('tcl/encoding/macGreek.enc',
   '/System/Library/Frameworks/Tcl.framework/Versions/8.5/Resources/Scripts/encoding/macGreek.enc',
   'DATA'),
  ('tcl/msgs/ko_kr.msg',
   '/System/Library/Frameworks/Tcl.framework/Versions/8.5/Resources/Scripts/msgs/ko_kr.msg',
   'DATA'),
  ('tcl/encoding/cp1257.enc',
   '/System/Library/Frameworks/Tcl.framework/Versions/8.5/Resources/Scripts/encoding/cp1257.enc',
   'DATA'),
  ('tcl/msgs/ta_in.msg',
   '/System/Library/Frameworks/Tcl.framework/Versions/8.5/Resources/Scripts/msgs/ta_in.msg',
   'DATA'),
  ('tcl/encoding/cp775.enc',
   '/System/Library/Frameworks/Tcl.framework/Versions/8.5/Resources/Scripts/encoding/cp775.enc',
   'DATA'),
  ('tcl/encoding/koi8-r.enc',
   '/System/Library/Frameworks/Tcl.framework/Versions/8.5/Resources/Scripts/encoding/koi8-r.enc',
   'DATA'),
  ('tcl/msgs/ga.msg',
   '/System/Library/Frameworks/Tcl.framework/Versions/8.5/Resources/Scripts/msgs/ga.msg',
   'DATA'),
  ('tcl/tclDTrace.d',
   '/System/Library/Frameworks/Tcl.framework/Versions/8.5/Resources/Scripts/tclDTrace.d',
   'DATA'),
  ('tcl/encoding/cp861.enc',
   '/System/Library/Frameworks/Tcl.framework/Versions/8.5/Resources/Scripts/encoding/cp861.enc',
   'DATA'),
  ('tcl/encoding/iso8859-9.enc',
   '/System/Library/Frameworks/Tcl.framework/Versions/8.5/Resources/Scripts/encoding/iso8859-9.enc',
   'DATA'),
  ('tk/ttk/ttk.tcl',
   '/System/Library/Frameworks/Tk.framework/Versions/8.5/Resources/Scripts/ttk/ttk.tcl',
   'DATA'),
  ('lib/python3.6/config-3.6m-darwin/Makefile',
   '/usr/local/Cellar/python3/3.6.4/Frameworks/Python.framework/Versions/3.6/lib/python3.6/config-3.6m-darwin/Makefile',
   'DATA'),
  ('tcl/msgs/es_pr.msg',
   '/System/Library/Frameworks/Tcl.framework/Versions/8.5/Resources/Scripts/msgs/es_pr.msg',
   'DATA'),
  ('tcl/msgs/kl.msg',
   '/System/Library/Frameworks/Tcl.framework/Versions/8.5/Resources/Scripts/msgs/kl.msg',
   'DATA'),
  ('tcl/encoding/iso8859-13.enc',
   '/System/Library/Frameworks/Tcl.framework/Versions/8.5/Resources/Scripts/encoding/iso8859-13.enc',
   'DATA'),
  ('tk/msgbox.tcl',
   '/System/Library/Frameworks/Tk.framework/Versions/8.5/Resources/Scripts/msgbox.tcl',
   'DATA'),
  ('tk/msgs/cs.msg',
   '/System/Library/Frameworks/Tk.framework/Versions/8.5/Resources/Scripts/msgs/cs.msg',
   'DATA'),
  ('tcl/encoding/euc-cn.enc',
   '/System/Library/Frameworks/Tcl.framework/Versions/8.5/Resources/Scripts/encoding/euc-cn.enc',
   'DATA'),
  ('tcl/encoding/cp866.enc',
   '/System/Library/Frameworks/Tcl.framework/Versions/8.5/Resources/Scripts/encoding/cp866.enc',
   'DATA'),
  ('tcl/msgs/mr_in.msg',
   '/System/Library/Frameworks/Tcl.framework/Versions/8.5/Resources/Scripts/msgs/mr_in.msg',
   'DATA'),
  ('tcl/http1.0/http.tcl',
   '/System/Library/Frameworks/Tcl.framework/Versions/8.5/Resources/Scripts/http1.0/http.tcl',
   'DATA'),
  ('tcl/encoding/cp949.enc',
   '/System/Library/Frameworks/Tcl.framework/Versions/8.5/Resources/Scripts/encoding/cp949.enc',
   'DATA'),
  ('tcl/msgs/fr_ca.msg',
   '/System/Library/Frameworks/Tcl.framework/Versions/8.5/Resources/Scripts/msgs/fr_ca.msg',
   'DATA'),
  ('tcl/msgs/zh.msg',
   '/System/Library/Frameworks/Tcl.framework/Versions/8.5/Resources/Scripts/msgs/zh.msg',
   'DATA'),
  ('tcl/msgs/es_gt.msg',
   '/System/Library/Frameworks/Tcl.framework/Versions/8.5/Resources/Scripts/msgs/es_gt.msg',
   'DATA'),
  ('tk/msgs/sv.msg',
   '/System/Library/Frameworks/Tk.framework/Versions/8.5/Resources/Scripts/msgs/sv.msg',
   'DATA'),
  ('tcl/encoding/cp850.enc',
   '/System/Library/Frameworks/Tcl.framework/Versions/8.5/Resources/Scripts/encoding/cp850.enc',
   'DATA'),
  ('tk/ttk/progress.tcl',
   '/System/Library/Frameworks/Tk.framework/Versions/8.5/Resources/Scripts/ttk/progress.tcl',
   'DATA'),
  ('tk/ttk/vistaTheme.tcl',
   '/System/Library/Frameworks/Tk.framework/Versions/8.5/Resources/Scripts/ttk/vistaTheme.tcl',
   'DATA'),
  ('tcl/encoding/macTurkish.enc',
   '/System/Library/Frameworks/Tcl.framework/Versions/8.5/Resources/Scripts/encoding/macTurkish.enc',
   'DATA'),
  ('tcl/encoding/jis0212.enc',
   '/System/Library/Frameworks/Tcl.framework/Versions/8.5/Resources/Scripts/encoding/jis0212.enc',
   'DATA'),
  ('tcl/msgs/ar_jo.msg',
   '/System/Library/Frameworks/Tcl.framework/Versions/8.5/Resources/Scripts/msgs/ar_jo.msg',
   'DATA'),
  ('tcl/encoding/iso8859-8.enc',
   '/System/Library/Frameworks/Tcl.framework/Versions/8.5/Resources/Scripts/encoding/iso8859-8.enc',
   'DATA'),
  ('tcl/encoding/cp1255.enc',
   '/System/Library/Frameworks/Tcl.framework/Versions/8.5/Resources/Scripts/encoding/cp1255.enc',
   'DATA'),
  ('tk/xmfbox.tcl',
   '/System/Library/Frameworks/Tk.framework/Versions/8.5/Resources/Scripts/xmfbox.tcl',
   'DATA'),
  ('tcl/encoding/cp862.enc',
   '/System/Library/Frameworks/Tcl.framework/Versions/8.5/Resources/Scripts/encoding/cp862.enc',
   'DATA'),
  ('tcl/encoding/jis0201.enc',
   '/System/Library/Frameworks/Tcl.framework/Versions/8.5/Resources/Scripts/encoding/jis0201.enc',
   'DATA'),
  ('tk/msgs/it.msg',
   '/System/Library/Frameworks/Tk.framework/Versions/8.5/Resources/Scripts/msgs/it.msg',
   'DATA'),
  ('tcl/encoding/gb12345.enc',
   '/System/Library/Frameworks/Tcl.framework/Versions/8.5/Resources/Scripts/encoding/gb12345.enc',
   'DATA'),
  ('tk/palette.tcl',
   '/System/Library/Frameworks/Tk.framework/Versions/8.5/Resources/Scripts/palette.tcl',
   'DATA'),
  ('tcl/msgs/id.msg',
   '/System/Library/Frameworks/Tcl.framework/Versions/8.5/Resources/Scripts/msgs/id.msg',
   'DATA'),
  ('tcl/encoding/macThai.enc',
   '/System/Library/Frameworks/Tcl.framework/Versions/8.5/Resources/Scripts/encoding/macThai.enc',
   'DATA'),
  ('tcl/msgs/es_pa.msg',
   '/System/Library/Frameworks/Tcl.framework/Versions/8.5/Resources/Scripts/msgs/es_pa.msg',
   'DATA'),
  ('tcl/msgs/pt_br.msg',
   '/System/Library/Frameworks/Tcl.framework/Versions/8.5/Resources/Scripts/msgs/pt_br.msg',
   'DATA'),
  ('tk/msgs/fr.msg',
   '/System/Library/Frameworks/Tk.framework/Versions/8.5/Resources/Scripts/msgs/fr.msg',
   'DATA'),
  ('tk/ttk/aquaTheme.tcl',
   '/System/Library/Frameworks/Tk.framework/Versions/8.5/Resources/Scripts/ttk/aquaTheme.tcl',
   'DATA'),
  ('tcl/msgs/gv_gb.msg',
   '/System/Library/Frameworks/Tcl.framework/Versions/8.5/Resources/Scripts/msgs/gv_gb.msg',
   'DATA'),
  ('tcl/encoding/cp1252.enc',
   '/System/Library/Frameworks/Tcl.framework/Versions/8.5/Resources/Scripts/encoding/cp1252.enc',
   'DATA'),
  ('tcl/msgs/ar_lb.msg',
   '/System/Library/Frameworks/Tcl.framework/Versions/8.5/Resources/Scripts/msgs/ar_lb.msg',
   'DATA'),
  ('tcl/msgs/es_ar.msg',
   '/System/Library/Frameworks/Tcl.framework/Versions/8.5/Resources/Scripts/msgs/es_ar.msg',
   'DATA'),
  ('tcl/encoding/macJapan.enc',
   '/System/Library/Frameworks/Tcl.framework/Versions/8.5/Resources/Scripts/encoding/macJapan.enc',
   'DATA'),
  ('tk/menu.tcl',
   '/System/Library/Frameworks/Tk.framework/Versions/8.5/Resources/Scripts/menu.tcl',
   'DATA'),
  ('tk/clrpick.tcl',
   '/System/Library/Frameworks/Tk.framework/Versions/8.5/Resources/Scripts/clrpick.tcl',
   'DATA'),
  ('tcl/init.tcl',
   '/System/Library/Frameworks/Tcl.framework/Versions/8.5/Resources/Scripts/init.tcl',
   'DATA'),
  ('tk/images/logoMed.gif',
   '/System/Library/Frameworks/Tk.framework/Versions/8.5/Resources/Scripts/images/logoMed.gif',
   'DATA'),
  ('tcl/msgs/en_sg.msg',
   '/System/Library/Frameworks/Tcl.framework/Versions/8.5/Resources/Scripts/msgs/en_sg.msg',
   'DATA'),
  ('tk/tkAppInit.c',
   '/System/Library/Frameworks/Tk.framework/Versions/8.5/Resources/Scripts/tkAppInit.c',
   'DATA'),
  ('tcl/clock.tcl',
   '/System/Library/Frameworks/Tcl.framework/Versions/8.5/Resources/Scripts/clock.tcl',
   'DATA'),
  ('tcl/encoding/cp874.enc',
   '/System/Library/Frameworks/Tcl.framework/Versions/8.5/Resources/Scripts/encoding/cp874.enc',
   'DATA'),
  ('tcl/msgs/lt.msg',
   '/System/Library/Frameworks/Tcl.framework/Versions/8.5/Resources/Scripts/msgs/lt.msg',
   'DATA'),
  ('tk/button.tcl',
   '/System/Library/Frameworks/Tk.framework/Versions/8.5/Resources/Scripts/button.tcl',
   'DATA'),
  ('tcl/msgs/bn.msg',
   '/System/Library/Frameworks/Tcl.framework/Versions/8.5/Resources/Scripts/msgs/bn.msg',
   'DATA'),
  ('tk/ttk/clamTheme.tcl',
   '/System/Library/Frameworks/Tk.framework/Versions/8.5/Resources/Scripts/ttk/clamTheme.tcl',
   'DATA'),
  ('tk/msgs/hu.msg',
   '/System/Library/Frameworks/Tk.framework/Versions/8.5/Resources/Scripts/msgs/hu.msg',
   'DATA'),
  ('tk/images/logo100.gif',
   '/System/Library/Frameworks/Tk.framework/Versions/8.5/Resources/Scripts/images/logo100.gif',
   'DATA'),
  ('tk/choosedir.tcl',
   '/System/Library/Frameworks/Tk.framework/Versions/8.5/Resources/Scripts/choosedir.tcl',
   'DATA'),
  ('tk/ttk/sizegrip.tcl',
   '/System/Library/Frameworks/Tk.framework/Versions/8.5/Resources/Scripts/ttk/sizegrip.tcl',
   'DATA'),
  ('tk/ttk/scale.tcl',
   '/System/Library/Frameworks/Tk.framework/Versions/8.5/Resources/Scripts/ttk/scale.tcl',
   'DATA'),
  ('tcl/encoding/cp950.enc',
   '/System/Library/Frameworks/Tcl.framework/Versions/8.5/Resources/Scripts/encoding/cp950.enc',
   'DATA'),
  ('tk/images/pwrdLogo75.gif',
   '/System/Library/Frameworks/Tk.framework/Versions/8.5/Resources/Scripts/images/pwrdLogo75.gif',
   'DATA'),
  ('tcl/encoding/cp863.enc',
   '/System/Library/Frameworks/Tcl.framework/Versions/8.5/Resources/Scripts/encoding/cp863.enc',
   'DATA'),
  ('tk/dialog.tcl',
   '/System/Library/Frameworks/Tk.framework/Versions/8.5/Resources/Scripts/dialog.tcl',
   'DATA'),
  ('tk/ttk/panedwindow.tcl',
   '/System/Library/Frameworks/Tk.framework/Versions/8.5/Resources/Scripts/ttk/panedwindow.tcl',
   'DATA'),
  ('tcl/msgs/zh_cn.msg',
   '/System/Library/Frameworks/Tcl.framework/Versions/8.5/Resources/Scripts/msgs/zh_cn.msg',
   'DATA'),
  ('tcl/history.tcl',
   '/System/Library/Frameworks/Tcl.framework/Versions/8.5/Resources/Scripts/history.tcl',
   'DATA'),
  ('tk/msgs/eo.msg',
   '/System/Library/Frameworks/Tk.framework/Versions/8.5/Resources/Scripts/msgs/eo.msg',
   'DATA'),
  ('tk/obsolete.tcl',
   '/System/Library/Frameworks/Tk.framework/Versions/8.5/Resources/Scripts/obsolete.tcl',
   'DATA'),
  ('tcl/msgs/en_ie.msg',
   '/System/Library/Frameworks/Tcl.framework/Versions/8.5/Resources/Scripts/msgs/en_ie.msg',
   'DATA'),
  ('tcl/encoding/iso8859-15.enc',
   '/System/Library/Frameworks/Tcl.framework/Versions/8.5/Resources/Scripts/encoding/iso8859-15.enc',
   'DATA'),
  ('tcl/msgs/fr_ch.msg',
   '/System/Library/Frameworks/Tcl.framework/Versions/8.5/Resources/Scripts/msgs/fr_ch.msg',
   'DATA'),
  ('tcl/msgs/ta.msg',
   '/System/Library/Frameworks/Tcl.framework/Versions/8.5/Resources/Scripts/msgs/ta.msg',
   'DATA'),
  ('tcl/encoding/iso2022-jp.enc',
   '/System/Library/Frameworks/Tcl.framework/Versions/8.5/Resources/Scripts/encoding/iso2022-jp.enc',
   'DATA'),
  ('tcl/msgs/af.msg',
   '/System/Library/Frameworks/Tcl.framework/Versions/8.5/Resources/Scripts/msgs/af.msg',
   'DATA'),
  ('tk/tk.tcl',
   '/System/Library/Frameworks/Tk.framework/Versions/8.5/Resources/Scripts/tk.tcl',
   'DATA'),
  ('tk/ttk/classicTheme.tcl',
   '/System/Library/Frameworks/Tk.framework/Versions/8.5/Resources/Scripts/ttk/classicTheme.tcl',
   'DATA'),
  ('tcl/msgs/en_au.msg',
   '/System/Library/Frameworks/Tcl.framework/Versions/8.5/Resources/Scripts/msgs/en_au.msg',
   'DATA'),
  ('tk/focus.tcl',
   '/System/Library/Frameworks/Tk.framework/Versions/8.5/Resources/Scripts/focus.tcl',
   'DATA'),
  ('tcl/msgs/gv.msg',
   '/System/Library/Frameworks/Tcl.framework/Versions/8.5/Resources/Scripts/msgs/gv.msg',
   'DATA'),
  ('tcl/msgs/fo.msg',
   '/System/Library/Frameworks/Tcl.framework/Versions/8.5/Resources/Scripts/msgs/fo.msg',
   'DATA'),
  ('tcl/encoding/iso8859-1.enc',
   '/System/Library/Frameworks/Tcl.framework/Versions/8.5/Resources/Scripts/encoding/iso8859-1.enc',
   'DATA'),
  ('tcl/encoding/ebcdic.enc',
   '/System/Library/Frameworks/Tcl.framework/Versions/8.5/Resources/Scripts/encoding/ebcdic.enc',
   'DATA'),
  ('tk/scrlbar.tcl',
   '/System/Library/Frameworks/Tk.framework/Versions/8.5/Resources/Scripts/scrlbar.tcl',
   'DATA'),
  ('tk/images/logo64.gif',
   '/System/Library/Frameworks/Tk.framework/Versions/8.5/Resources/Scripts/images/logo64.gif',
   'DATA'),
  ('tcl/encoding/cp857.enc',
   '/System/Library/Frameworks/Tcl.framework/Versions/8.5/Resources/Scripts/encoding/cp857.enc',
   'DATA'),
  ('tk/safetk.tcl',
   '/System/Library/Frameworks/Tk.framework/Versions/8.5/Resources/Scripts/safetk.tcl',
   'DATA'),
  ('tcl/msgs/pt.msg',
   '/System/Library/Frameworks/Tcl.framework/Versions/8.5/Resources/Scripts/msgs/pt.msg',
   'DATA'),
  ('tcl/msgs/es_do.msg',
   '/System/Library/Frameworks/Tcl.framework/Versions/8.5/Resources/Scripts/msgs/es_do.msg',
   'DATA'),
  ('tcl/encoding/big5.enc',
   '/System/Library/Frameworks/Tcl.framework/Versions/8.5/Resources/Scripts/encoding/big5.enc',
   'DATA'),
  ('tk/ttk/menubutton.tcl',
   '/System/Library/Frameworks/Tk.framework/Versions/8.5/Resources/Scripts/ttk/menubutton.tcl',
   'DATA'),
  ('tcl/msgs/ga_ie.msg',
   '/System/Library/Frameworks/Tcl.framework/Versions/8.5/Resources/Scripts/msgs/ga_ie.msg',
   'DATA'),
  ('tcl/msgs/ms.msg',
   '/System/Library/Frameworks/Tcl.framework/Versions/8.5/Resources/Scripts/msgs/ms.msg',
   'DATA'),
  ('tcl/msgs/ru.msg',
   '/System/Library/Frameworks/Tcl.framework/Versions/8.5/Resources/Scripts/msgs/ru.msg',
   'DATA'),
  ('tk/tkfbox.tcl',
   '/System/Library/Frameworks/Tk.framework/Versions/8.5/Resources/Scripts/tkfbox.tcl',
   'DATA'),
  ('tcl/msgs/es_cl.msg',
   '/System/Library/Frameworks/Tcl.framework/Versions/8.5/Resources/Scripts/msgs/es_cl.msg',
   'DATA'),
  ('tcl/package.tcl',
   '/System/Library/Frameworks/Tcl.framework/Versions/8.5/Resources/Scripts/package.tcl',
   'DATA'),
  ('tk/scale.tcl',
   '/System/Library/Frameworks/Tk.framework/Versions/8.5/Resources/Scripts/scale.tcl',
   'DATA'),
  ('tcl/msgs/zh_hk.msg',
   '/System/Library/Frameworks/Tcl.framework/Versions/8.5/Resources/Scripts/msgs/zh_hk.msg',
   'DATA'),
  ('tcl/msgs/hr.msg',
   '/System/Library/Frameworks/Tcl.framework/Versions/8.5/Resources/Scripts/msgs/hr.msg',
   'DATA'),
  ('include/python3.6m/pyconfig.h',
   '/usr/local/Cellar/python3/3.6.4/Frameworks/Python.framework/Versions/3.6/include/python3.6m/pyconfig.h',
   'DATA'),
  ('tcl/encoding/macIceland.enc',
   '/System/Library/Frameworks/Tcl.framework/Versions/8.5/Resources/Scripts/encoding/macIceland.enc',
   'DATA'),
  ('tcl/msgs/it_ch.msg',
   '/System/Library/Frameworks/Tcl.framework/Versions/8.5/Resources/Scripts/msgs/it_ch.msg',
   'DATA'),
  ('tk/ttk/treeview.tcl',
   '/System/Library/Frameworks/Tk.framework/Versions/8.5/Resources/Scripts/ttk/treeview.tcl',
   'DATA'),
  ('tcl/msgs/en_be.msg',
   '/System/Library/Frameworks/Tcl.framework/Versions/8.5/Resources/Scripts/msgs/en_be.msg',
   'DATA'),
  ('tcl/msgs/hi.msg',
   '/System/Library/Frameworks/Tcl.framework/Versions/8.5/Resources/Scripts/msgs/hi.msg',
   'DATA'),
  ('tcl/encoding/cp1251.enc',
   '/System/Library/Frameworks/Tcl.framework/Versions/8.5/Resources/Scripts/encoding/cp1251.enc',
   'DATA'),
  ('tcl/encoding/cp1253.enc',
   '/System/Library/Frameworks/Tcl.framework/Versions/8.5/Resources/Scripts/encoding/cp1253.enc',
   'DATA'),
  ('tcl/encoding/iso2022.enc',
   '/System/Library/Frameworks/Tcl.framework/Versions/8.5/Resources/Scripts/encoding/iso2022.enc',
   'DATA'),
  ('tk/ttk/cursors.tcl',
   '/System/Library/Frameworks/Tk.framework/Versions/8.5/Resources/Scripts/ttk/cursors.tcl',
   'DATA'),
  ('tk/optMenu.tcl',
   '/System/Library/Frameworks/Tk.framework/Versions/8.5/Resources/Scripts/optMenu.tcl',
   'DATA'),
  ('tcl/msgs/bn_in.msg',
   '/System/Library/Frameworks/Tcl.framework/Versions/8.5/Resources/Scripts/msgs/bn_in.msg',
   'DATA'),
  ('tcl/encoding/ascii.enc',
   '/System/Library/Frameworks/Tcl.framework/Versions/8.5/Resources/Scripts/encoding/ascii.enc',
   'DATA'),
  ('tk/msgs/nl.msg',
   '/System/Library/Frameworks/Tk.framework/Versions/8.5/Resources/Scripts/msgs/nl.msg',
   'DATA'),
  ('tcl/msgs/fr_be.msg',
   '/System/Library/Frameworks/Tcl.framework/Versions/8.5/Resources/Scripts/msgs/fr_be.msg',
   'DATA'),
  ('tcl/encoding/cp1256.enc',
   '/System/Library/Frameworks/Tcl.framework/Versions/8.5/Resources/Scripts/encoding/cp1256.enc',
   'DATA'),
  ('tk/bgerror.tcl',
   '/System/Library/Frameworks/Tk.framework/Versions/8.5/Resources/Scripts/bgerror.tcl',
   'DATA'),
  ('tk/images/logo.eps',
   '/System/Library/Frameworks/Tk.framework/Versions/8.5/Resources/Scripts/images/logo.eps',
   'DATA'),
  ('tk/images/pwrdLogo175.gif',
   '/System/Library/Frameworks/Tk.framework/Versions/8.5/Resources/Scripts/images/pwrdLogo175.gif',
   'DATA'),
  ('tcl/msgs/el.msg',
   '/System/Library/Frameworks/Tcl.framework/Versions/8.5/Resources/Scripts/msgs/el.msg',
   'DATA'),
  ('tk/entry.tcl',
   '/System/Library/Frameworks/Tk.framework/Versions/8.5/Resources/Scripts/entry.tcl',
   'DATA'),
  ('tcl/msgs/ar_in.msg',
   '/System/Library/Frameworks/Tcl.framework/Versions/8.5/Resources/Scripts/msgs/ar_in.msg',
   'DATA'),
  ('tcl/tclIndex',
   '/System/Library/Frameworks/Tcl.framework/Versions/8.5/Resources/Scripts/tclIndex',
   'DATA'),
  ('tcl/msgs/te_in.msg',
   '/System/Library/Frameworks/Tcl.framework/Versions/8.5/Resources/Scripts/msgs/te_in.msg',
   'DATA'),
  ('tcl/msgs/ca.msg',
   '/System/Library/Frameworks/Tcl.framework/Versions/8.5/Resources/Scripts/msgs/ca.msg',
   'DATA'),
  ('tcl/encoding/cp855.enc',
   '/System/Library/Frameworks/Tcl.framework/Versions/8.5/Resources/Scripts/encoding/cp855.enc',
   'DATA'),
  ('tk/ttk/winTheme.tcl',
   '/System/Library/Frameworks/Tk.framework/Versions/8.5/Resources/Scripts/ttk/winTheme.tcl',
   'DATA'),
  ('tcl/msgs/af_za.msg',
   '/System/Library/Frameworks/Tcl.framework/Versions/8.5/Resources/Scripts/msgs/af_za.msg',
   'DATA'),
  ('tcl/msgs/zh_sg.msg',
   '/System/Library/Frameworks/Tcl.framework/Versions/8.5/Resources/Scripts/msgs/zh_sg.msg',
   'DATA'),
  ('tk/msgs/en_gb.msg',
   '/System/Library/Frameworks/Tk.framework/Versions/8.5/Resources/Scripts/msgs/en_gb.msg',
   'DATA'),
  ('tcl/tclAppInit.c',
   '/System/Library/Frameworks/Tcl.framework/Versions/8.5/Resources/Scripts/tclAppInit.c',
   'DATA'),
  ('tcl/msgs/kw_gb.msg',
   '/System/Library/Frameworks/Tcl.framework/Versions/8.5/Resources/Scripts/msgs/kw_gb.msg',
   'DATA'),
  ('tk/images/README',
   '/System/Library/Frameworks/Tk.framework/Versions/8.5/Resources/Scripts/images/README',
   'DATA'),
  ('tcl/msgs/gl_es.msg',
   '/System/Library/Frameworks/Tcl.framework/Versions/8.5/Resources/Scripts/msgs/gl_es.msg',
   'DATA'),
  ('tcl/msgs/ms_my.msg',
   '/System/Library/Frameworks/Tcl.framework/Versions/8.5/Resources/Scripts/msgs/ms_my.msg',
   'DATA'),
  ('tcl/http1.0/pkgIndex.tcl',
   '/System/Library/Frameworks/Tcl.framework/Versions/8.5/Resources/Scripts/http1.0/pkgIndex.tcl',
   'DATA'),
  ('tcl/msgs/cs.msg',
   '/System/Library/Frameworks/Tcl.framework/Versions/8.5/Resources/Scripts/msgs/cs.msg',
   'DATA'),
  ('tcl/encoding/cp1254.enc',
   '/System/Library/Frameworks/Tcl.framework/Versions/8.5/Resources/Scripts/encoding/cp1254.enc',
   'DATA'),
  ('tcl/tm.tcl',
   '/System/Library/Frameworks/Tcl.framework/Versions/8.5/Resources/Scripts/tm.tcl',
   'DATA'),
  ('tcl/msgs/kok_in.msg',
   '/System/Library/Frameworks/Tcl.framework/Versions/8.5/Resources/Scripts/msgs/kok_in.msg',
   'DATA'),
  ('tcl/encoding/cp852.enc',
   '/System/Library/Frameworks/Tcl.framework/Versions/8.5/Resources/Scripts/encoding/cp852.enc',
   'DATA'),
  ('tcl/msgs/kl_gl.msg',
   '/System/Library/Frameworks/Tcl.framework/Versions/8.5/Resources/Scripts/msgs/kl_gl.msg',
   'DATA'),
  ('tk/ttk/altTheme.tcl',
   '/System/Library/Frameworks/Tk.framework/Versions/8.5/Resources/Scripts/ttk/altTheme.tcl',
   'DATA'),
  ('tcl/encoding/dingbats.enc',
   '/System/Library/Frameworks/Tcl.framework/Versions/8.5/Resources/Scripts/encoding/dingbats.enc',
   'DATA'),
  ('lib2to3/Grammar.txt',
   '/usr/local/Cellar/python3/3.6.4/Frameworks/Python.framework/Versions/3.6/lib/python3.6/lib2to3/Grammar.txt',
   'DATA'),
  ('tcl/msgs/lv.msg',
   '/System/Library/Frameworks/Tcl.framework/Versions/8.5/Resources/Scripts/msgs/lv.msg',
   'DATA'),
  ('tk/images/logoLarge.gif',
   '/System/Library/Frameworks/Tk.framework/Versions/8.5/Resources/Scripts/images/logoLarge.gif',
   'DATA'),
  ('tcl/encoding/koi8-u.enc',
   '/System/Library/Frameworks/Tcl.framework/Versions/8.5/Resources/Scripts/encoding/koi8-u.enc',
   'DATA'),
  ('tk/msgs/el.msg',
   '/System/Library/Frameworks/Tk.framework/Versions/8.5/Resources/Scripts/msgs/el.msg',
   'DATA'),
  ('tk/console.tcl',
   '/System/Library/Frameworks/Tk.framework/Versions/8.5/Resources/Scripts/console.tcl',
   'DATA'),
  ('tcl/msgs/es_bo.msg',
   '/System/Library/Frameworks/Tcl.framework/Versions/8.5/Resources/Scripts/msgs/es_bo.msg',
   'DATA'),
  ('tcl/msgs/ar_sy.msg',
   '/System/Library/Frameworks/Tcl.framework/Versions/8.5/Resources/Scripts/msgs/ar_sy.msg',
   'DATA'),
  ('tcl/msgs/en_zw.msg',
   '/System/Library/Frameworks/Tcl.framework/Versions/8.5/Resources/Scripts/msgs/en_zw.msg',
   'DATA'),
  ('tcl/word.tcl',
   '/System/Library/Frameworks/Tcl.framework/Versions/8.5/Resources/Scripts/word.tcl',
   'DATA'),
  ('tcl/msgs/en_za.msg',
   '/System/Library/Frameworks/Tcl.framework/Versions/8.5/Resources/Scripts/msgs/en_za.msg',
   'DATA'),
  ('tcl/msgs/es_mx.msg',
   '/System/Library/Frameworks/Tcl.framework/Versions/8.5/Resources/Scripts/msgs/es_mx.msg',
   'DATA'),
  ('tcl/msgs/ro.msg',
   '/System/Library/Frameworks/Tcl.framework/Versions/8.5/Resources/Scripts/msgs/ro.msg',
   'DATA'),
  ('tk/msgs/pt.msg',
   '/System/Library/Frameworks/Tk.framework/Versions/8.5/Resources/Scripts/msgs/pt.msg',
   'DATA'),
  ('tk/msgs/ru.msg',
   '/System/Library/Frameworks/Tk.framework/Versions/8.5/Resources/Scripts/msgs/ru.msg',
   'DATA'),
  ('tk/ttk/combobox.tcl',
   '/System/Library/Frameworks/Tk.framework/Versions/8.5/Resources/Scripts/ttk/combobox.tcl',
   'DATA'),
  ('tcl/msgs/fa_ir.msg',
   '/System/Library/Frameworks/Tcl.framework/Versions/8.5/Resources/Scripts/msgs/fa_ir.msg',
   'DATA'),
  ('tcl/msgs/ja.msg',
   '/System/Library/Frameworks/Tcl.framework/Versions/8.5/Resources/Scripts/msgs/ja.msg',
   'DATA'),
  ('tk/tearoff.tcl',
   '/System/Library/Frameworks/Tk.framework/Versions/8.5/Resources/Scripts/tearoff.tcl',
   'DATA'),
  ('tcl/encoding/iso8859-5.enc',
   '/System/Library/Frameworks/Tcl.framework/Versions/8.5/Resources/Scripts/encoding/iso8859-5.enc',
   'DATA'),
  ('tcl/msgs/ar.msg',
   '/System/Library/Frameworks/Tcl.framework/Versions/8.5/Resources/Scripts/msgs/ar.msg',
   'DATA'),
  ('tcl/msgs/th.msg',
   '/System/Library/Frameworks/Tcl.framework/Versions/8.5/Resources/Scripts/msgs/th.msg',
   'DATA'),
  ('tk/spinbox.tcl',
   '/System/Library/Frameworks/Tk.framework/Versions/8.5/Resources/Scripts/spinbox.tcl',
   'DATA'),
  ('tcl/encoding/euc-kr.enc',
   '/System/Library/Frameworks/Tcl.framework/Versions/8.5/Resources/Scripts/encoding/euc-kr.enc',
   'DATA'),
  ('tk/ttk/xpTheme.tcl',
   '/System/Library/Frameworks/Tk.framework/Versions/8.5/Resources/Scripts/ttk/xpTheme.tcl',
   'DATA'),
  ('tcl/msgs/en_nz.msg',
   '/System/Library/Frameworks/Tcl.framework/Versions/8.5/Resources/Scripts/msgs/en_nz.msg',
   'DATA'),
  ('tcl/msgs/de_at.msg',
   '/System/Library/Frameworks/Tcl.framework/Versions/8.5/Resources/Scripts/msgs/de_at.msg',
   'DATA'),
  ('tcl/msgs/mk.msg',
   '/System/Library/Frameworks/Tcl.framework/Versions/8.5/Resources/Scripts/msgs/mk.msg',
   'DATA'),
  ('tk/tclIndex',
   '/System/Library/Frameworks/Tk.framework/Versions/8.5/Resources/Scripts/tclIndex',
   'DATA'),
  ('tcl/parray.tcl',
   '/System/Library/Frameworks/Tcl.framework/Versions/8.5/Resources/Scripts/parray.tcl',
   'DATA'),
  ('tk/images/pwrdLogo100.gif',
   '/System/Library/Frameworks/Tk.framework/Versions/8.5/Resources/Scripts/images/pwrdLogo100.gif',
   'DATA'),
  ('tcl/msgs/sr.msg',
   '/System/Library/Frameworks/Tcl.framework/Versions/8.5/Resources/Scripts/msgs/sr.msg',
   'DATA'),
  ('tcl/encoding/iso8859-2.enc',
   '/System/Library/Frameworks/Tcl.framework/Versions/8.5/Resources/Scripts/encoding/iso8859-2.enc',
   'DATA'),
  ('tcl/msgs/de.msg',
   '/System/Library/Frameworks/Tcl.framework/Versions/8.5/Resources/Scripts/msgs/de.msg',
   'DATA'),
  ('tcl/msgs/et.msg',
   '/System/Library/Frameworks/Tcl.framework/Versions/8.5/Resources/Scripts/msgs/et.msg',
   'DATA'),
  ('tcl/msgs/es_sv.msg',
   '/System/Library/Frameworks/Tcl.framework/Versions/8.5/Resources/Scripts/msgs/es_sv.msg',
   'DATA'),
  ('tk/mkpsenc.tcl',
   '/System/Library/Frameworks/Tk.framework/Versions/8.5/Resources/Scripts/mkpsenc.tcl',
   'DATA'),
  ('tcl/msgs/he.msg',
   '/System/Library/Frameworks/Tcl.framework/Versions/8.5/Resources/Scripts/msgs/he.msg',
   'DATA'),
  ('tcl/msgs/nn.msg',
   '/System/Library/Frameworks/Tcl.framework/Versions/8.5/Resources/Scripts/msgs/nn.msg',
   'DATA'),
  ('tcl/opt0.4/optparse.tcl',
   '/System/Library/Frameworks/Tcl.framework/Versions/8.5/Resources/Scripts/opt0.4/optparse.tcl',
   'DATA'),
  ('tcl/encoding/cp737.enc',
   '/System/Library/Frameworks/Tcl.framework/Versions/8.5/Resources/Scripts/encoding/cp737.enc',
   'DATA'),
  ('tk/msgs/es.msg',
   '/System/Library/Frameworks/Tk.framework/Versions/8.5/Resources/Scripts/msgs/es.msg',
   'DATA'),
  ('tcl/msgs/be.msg',
   '/System/Library/Frameworks/Tcl.framework/Versions/8.5/Resources/Scripts/msgs/be.msg',
   'DATA'),
  ('tcl/msgs/fo_fo.msg',
   '/System/Library/Frameworks/Tcl.framework/Versions/8.5/Resources/Scripts/msgs/fo_fo.msg',
   'DATA'),
  ('tk/images/tai-ku.gif',
   '/System/Library/Frameworks/Tk.framework/Versions/8.5/Resources/Scripts/images/tai-ku.gif',
   'DATA'),
  ('tcl/msgs/mr.msg',
   '/System/Library/Frameworks/Tcl.framework/Versions/8.5/Resources/Scripts/msgs/mr.msg',
   'DATA'),
  ('tk/ttk/notebook.tcl',
   '/System/Library/Frameworks/Tk.framework/Versions/8.5/Resources/Scripts/ttk/notebook.tcl',
   'DATA'),
  ('tcl/msgs/it.msg',
   '/System/Library/Frameworks/Tcl.framework/Versions/8.5/Resources/Scripts/msgs/it.msg',
   'DATA'),
  ('tcl/encoding/gb2312-raw.enc',
   '/System/Library/Frameworks/Tcl.framework/Versions/8.5/Resources/Scripts/encoding/gb2312-raw.enc',
   'DATA'),
  ('tk/ttk/spinbox.tcl',
   '/System/Library/Frameworks/Tk.framework/Versions/8.5/Resources/Scripts/ttk/spinbox.tcl',
   'DATA'),
  ('tcl/msgs/nl.msg',
   '/System/Library/Frameworks/Tcl.framework/Versions/8.5/Resources/Scripts/msgs/nl.msg',
   'DATA'),
  ('tcl/msgs/es_cr.msg',
   '/System/Library/Frameworks/Tcl.framework/Versions/8.5/Resources/Scripts/msgs/es_cr.msg',
   'DATA'),
  ('tcl/encoding/macCyrillic.enc',
   '/System/Library/Frameworks/Tcl.framework/Versions/8.5/Resources/Scripts/encoding/macCyrillic.enc',
   'DATA'),
  ('tcl/msgs/vi.msg',
   '/System/Library/Frameworks/Tcl.framework/Versions/8.5/Resources/Scripts/msgs/vi.msg',
   'DATA'),
  ('tcl/msgs/eu.msg',
   '/System/Library/Frameworks/Tcl.framework/Versions/8.5/Resources/Scripts/msgs/eu.msg',
   'DATA'),
  ('tcl/msgs/da.msg',
   '/System/Library/Frameworks/Tcl.framework/Versions/8.5/Resources/Scripts/msgs/da.msg',
   'DATA'),
  ('lib2to3/tests/data/README',
   '/usr/local/Cellar/python3/3.6.4/Frameworks/Python.framework/Versions/3.6/lib/python3.6/lib2to3/tests/data/README',
   'DATA'),
  ('tk/pkgIndex.tcl',
   '/System/Library/Frameworks/Tk.framework/Versions/8.5/Resources/Scripts/pkgIndex.tcl',
   'DATA'),
  ('tcl/msgs/es_uy.msg',
   '/System/Library/Frameworks/Tcl.framework/Versions/8.5/Resources/Scripts/msgs/es_uy.msg',
   'DATA'),
  ('tk/listbox.tcl',
   '/System/Library/Frameworks/Tk.framework/Versions/8.5/Resources/Scripts/listbox.tcl',
   'DATA'),
  ('tcl/msgs/es_ec.msg',
   '/System/Library/Frameworks/Tcl.framework/Versions/8.5/Resources/Scripts/msgs/es_ec.msg',
   'DATA'),
  ('tcl/encoding/shiftjis.enc',
   '/System/Library/Frameworks/Tcl.framework/Versions/8.5/Resources/Scripts/encoding/shiftjis.enc',
   'DATA'),
  ('tcl/msgs/sk.msg',
   '/System/Library/Frameworks/Tcl.framework/Versions/8.5/Resources/Scripts/msgs/sk.msg',
   'DATA'),
  ('tcl/msgs/fa.msg',
   '/System/Library/Frameworks/Tcl.framework/Versions/8.5/Resources/Scripts/msgs/fa.msg',
   'DATA'),
  ('tcl/msgs/en_bw.msg',
   '/System/Library/Frameworks/Tcl.framework/Versions/8.5/Resources/Scripts/msgs/en_bw.msg',
   'DATA'),
  ('tcl/msgs/mt.msg',
   '/System/Library/Frameworks/Tcl.framework/Versions/8.5/Resources/Scripts/msgs/mt.msg',
   'DATA'),
  ('tcl/encoding/cp1258.enc',
   '/System/Library/Frameworks/Tcl.framework/Versions/8.5/Resources/Scripts/encoding/cp1258.enc',
   'DATA'),
  ('tk/ttk/fonts.tcl',
   '/System/Library/Frameworks/Tk.framework/Versions/8.5/Resources/Scripts/ttk/fonts.tcl',
   'DATA'),
  ('tcl/encoding/tis-620.enc',
   '/System/Library/Frameworks/Tcl.framework/Versions/8.5/Resources/Scripts/encoding/tis-620.enc',
   'DATA'),
  ('tcl/msgs/id_id.msg',
   '/System/Library/Frameworks/Tcl.framework/Versions/8.5/Resources/Scripts/msgs/id_id.msg',
   'DATA'),
  ('tcl/msgs/sw.msg',
   '/System/Library/Frameworks/Tcl.framework/Versions/8.5/Resources/Scripts/msgs/sw.msg',
   'DATA'),
  ('tk/msgs/da.msg',
   '/System/Library/Frameworks/Tk.framework/Versions/8.5/Resources/Scripts/msgs/da.msg',
   'DATA'),
  ('tcl/msgs/hu.msg',
   '/System/Library/Frameworks/Tcl.framework/Versions/8.5/Resources/Scripts/msgs/hu.msg',
   'DATA'),
  ('tcl/opt0.4/pkgIndex.tcl',
   '/System/Library/Frameworks/Tcl.framework/Versions/8.5/Resources/Scripts/opt0.4/pkgIndex.tcl',
   'DATA'),
  ('tcl/encoding/cp936.enc',
   '/System/Library/Frameworks/Tcl.framework/Versions/8.5/Resources/Scripts/encoding/cp936.enc',
   'DATA'),
  ('tcl/msgs/pl.msg',
   '/System/Library/Frameworks/Tcl.framework/Versions/8.5/Resources/Scripts/msgs/pl.msg',
   'DATA'),
  ('tk/images/pwrdLogo200.gif',
   '/System/Library/Frameworks/Tk.framework/Versions/8.5/Resources/Scripts/images/pwrdLogo200.gif',
   'DATA'),
  ('tcl/encoding/cp1250.enc',
   '/System/Library/Frameworks/Tcl.framework/Versions/8.5/Resources/Scripts/encoding/cp1250.enc',
   'DATA'),
  ('tcl/encoding/iso8859-10.enc',
   '/System/Library/Frameworks/Tcl.framework/Versions/8.5/Resources/Scripts/encoding/iso8859-10.enc',
   'DATA'),
  ('tcl/msgs/bg.msg',
   '/System/Library/Frameworks/Tcl.framework/Versions/8.5/Resources/Scripts/msgs/bg.msg',
   'DATA'),
  ('tk/ttk/utils.tcl',
   '/System/Library/Frameworks/Tk.framework/Versions/8.5/Resources/Scripts/ttk/utils.tcl',
   'DATA'),
  ('tcl/msgs/fr.msg',
   '/System/Library/Frameworks/Tcl.framework/Versions/8.5/Resources/Scripts/msgs/fr.msg',
   'DATA'),
  ('tcl/msgs/es_ve.msg',
   '/System/Library/Frameworks/Tcl.framework/Versions/8.5/Resources/Scripts/msgs/es_ve.msg',
   'DATA'),
  ('tcl/msgs/tr.msg',
   '/System/Library/Frameworks/Tcl.framework/Versions/8.5/Resources/Scripts/msgs/tr.msg',
   'DATA'),
  ('tcl/encoding/euc-jp.enc',
   '/System/Library/Frameworks/Tcl.framework/Versions/8.5/Resources/Scripts/encoding/euc-jp.enc',
   'DATA'),
  ('tcl/encoding/iso8859-14.enc',
   '/System/Library/Frameworks/Tcl.framework/Versions/8.5/Resources/Scripts/encoding/iso8859-14.enc',
   'DATA'),
  ('tk/ttk/entry.tcl',
   '/System/Library/Frameworks/Tk.framework/Versions/8.5/Resources/Scripts/ttk/entry.tcl',
   'DATA'),
  ('tcl/msgs/de_be.msg',
   '/System/Library/Frameworks/Tcl.framework/Versions/8.5/Resources/Scripts/msgs/de_be.msg',
   'DATA'),
  ('tcl/encoding/macUkraine.enc',
   '/System/Library/Frameworks/Tcl.framework/Versions/8.5/Resources/Scripts/encoding/macUkraine.enc',
   'DATA'),
  ('tcl/encoding/ksc5601.enc',
   '/System/Library/Frameworks/Tcl.framework/Versions/8.5/Resources/Scripts/encoding/ksc5601.enc',
   'DATA'),
  ('tcl/encoding/macCentEuro.enc',
   '/System/Library/Frameworks/Tcl.framework/Versions/8.5/Resources/Scripts/encoding/macCentEuro.enc',
   'DATA'),
  ('tcl/safe.tcl',
   '/System/Library/Frameworks/Tcl.framework/Versions/8.5/Resources/Scripts/safe.tcl',
   'DATA'),
  ('lib2to3/Grammar3.6.4.final.0.pickle',
   '/usr/local/Cellar/python3/3.6.4/Frameworks/Python.framework/Versions/3.6/lib/python3.6/lib2to3/Grammar3.6.4.final.0.pickle',
   'DATA'),
  ('tcl/encoding/macCroatian.enc',
   '/System/Library/Frameworks/Tcl.framework/Versions/8.5/Resources/Scripts/encoding/macCroatian.enc',
   'DATA'),
  ('tcl/encoding/cp437.enc',
   '/System/Library/Frameworks/Tcl.framework/Versions/8.5/Resources/Scripts/encoding/cp437.enc',
   'DATA'),
  ('tk/msgs/pl.msg',
   '/System/Library/Frameworks/Tk.framework/Versions/8.5/Resources/Scripts/msgs/pl.msg',
   'DATA'),
  ('tk/images/pwrdLogo.eps',
   '/System/Library/Frameworks/Tk.framework/Versions/8.5/Resources/Scripts/images/pwrdLogo.eps',
   'DATA'),
  ('tcl/encoding/iso8859-16.enc',
   '/System/Library/Frameworks/Tcl.framework/Versions/8.5/Resources/Scripts/encoding/iso8859-16.enc',
   'DATA'),
  ('tcl/encoding/jis0208.enc',
   '/System/Library/Frameworks/Tcl.framework/Versions/8.5/Resources/Scripts/encoding/jis0208.enc',
   'DATA'),
  ('tcl/msgs/en_ca.msg',
   '/System/Library/Frameworks/Tcl.framework/Versions/8.5/Resources/Scripts/msgs/en_ca.msg',
   'DATA'),
  ('tcl/encoding/cp932.enc',
   '/System/Library/Frameworks/Tcl.framework/Versions/8.5/Resources/Scripts/encoding/cp932.enc',
   'DATA'),
  ('tk/comdlg.tcl',
   '/System/Library/Frameworks/Tk.framework/Versions/8.5/Resources/Scripts/comdlg.tcl',
   'DATA'),
  ('tcl/msgs/fa_in.msg',
   '/System/Library/Frameworks/Tcl.framework/Versions/8.5/Resources/Scripts/msgs/fa_in.msg',
   'DATA'),
  ('tcl/msgs/en_gb.msg',
   '/System/Library/Frameworks/Tcl.framework/Versions/8.5/Resources/Scripts/msgs/en_gb.msg',
   'DATA'),
  ('tcl/msgs/sq.msg',
   '/System/Library/Frameworks/Tcl.framework/Versions/8.5/Resources/Scripts/msgs/sq.msg',
   'DATA'),
  ('tcl/msgs/ko.msg',
   '/System/Library/Frameworks/Tcl.framework/Versions/8.5/Resources/Scripts/msgs/ko.msg',
   'DATA'),
  ('tcl/msgs/is.msg',
   '/System/Library/Frameworks/Tcl.framework/Versions/8.5/Resources/Scripts/msgs/is.msg',
   'DATA'),
  ('tcl/msgs/es_co.msg',
   '/System/Library/Frameworks/Tcl.framework/Versions/8.5/Resources/Scripts/msgs/es_co.msg',
   'DATA'),
  ('tk/ttk/button.tcl',
   '/System/Library/Frameworks/Tk.framework/Versions/8.5/Resources/Scripts/ttk/button.tcl',
   'DATA'),
  ('tcl/msgs/te.msg',
   '/System/Library/Frameworks/Tcl.framework/Versions/8.5/Resources/Scripts/msgs/te.msg',
   'DATA'),
  ('tk/msgs/de.msg',
   '/System/Library/Frameworks/Tk.framework/Versions/8.5/Resources/Scripts/msgs/de.msg',
   'DATA'),
  ('tcl/msgs/uk.msg',
   '/System/Library/Frameworks/Tcl.framework/Versions/8.5/Resources/Scripts/msgs/uk.msg',
   'DATA'),
  ('tk/images/pwrdLogo150.gif',
   '/System/Library/Frameworks/Tk.framework/Versions/8.5/Resources/Scripts/images/pwrdLogo150.gif',
   'DATA'),
  ('tcl/msgs/eu_es.msg',
   '/System/Library/Frameworks/Tcl.framework/Versions/8.5/Resources/Scripts/msgs/eu_es.msg',
   'DATA'),
  ('tcl/msgs/en_in.msg',
   '/System/Library/Frameworks/Tcl.framework/Versions/8.5/Resources/Scripts/msgs/en_in.msg',
   'DATA'),
  ('tcl/msgs/fi.msg',
   '/System/Library/Frameworks/Tcl.framework/Versions/8.5/Resources/Scripts/msgs/fi.msg',
   'DATA'),
  ('tcl/msgs/kw.msg',
   '/System/Library/Frameworks/Tcl.framework/Versions/8.5/Resources/Scripts/msgs/kw.msg',
   'DATA'),
  ('tcl/msgs/es_pe.msg',
   '/System/Library/Frameworks/Tcl.framework/Versions/8.5/Resources/Scripts/msgs/es_pe.msg',
   'DATA'),
  ('tcl/msgs/sv.msg',
   '/System/Library/Frameworks/Tcl.framework/Versions/8.5/Resources/Scripts/msgs/sv.msg',
   'DATA'),
  ('tcl/encoding/cp865.enc',
   '/System/Library/Frameworks/Tcl.framework/Versions/8.5/Resources/Scripts/encoding/cp865.enc',
   'DATA'),
  ('tk/panedwindow.tcl',
   '/System/Library/Frameworks/Tk.framework/Versions/8.5/Resources/Scripts/panedwindow.tcl',
   'DATA'),
  ('tcl/msgs/es_hn.msg',
   '/System/Library/Frameworks/Tcl.framework/Versions/8.5/Resources/Scripts/msgs/es_hn.msg',
   'DATA'),
  ('tk/ttk/scrollbar.tcl',
   '/System/Library/Frameworks/Tk.framework/Versions/8.5/Resources/Scripts/ttk/scrollbar.tcl',
   'DATA'),
  ('tcl/encoding/iso8859-3.enc',
   '/System/Library/Frameworks/Tcl.framework/Versions/8.5/Resources/Scripts/encoding/iso8859-3.enc',
   'DATA'),
  ('tcl/encoding/cp860.enc',
   '/System/Library/Frameworks/Tcl.framework/Versions/8.5/Resources/Scripts/encoding/cp860.enc',
   'DATA'),
  ('tcl/encoding/cp864.enc',
   '/System/Library/Frameworks/Tcl.framework/Versions/8.5/Resources/Scripts/encoding/cp864.enc',
   'DATA'),
  ('tcl/msgs/ru_ua.msg',
   '/System/Library/Frameworks/Tcl.framework/Versions/8.5/Resources/Scripts/msgs/ru_ua.msg',
   'DATA'),
  ('tcl/encoding/macDingbats.enc',
   '/System/Library/Frameworks/Tcl.framework/Versions/8.5/Resources/Scripts/encoding/macDingbats.enc',
   'DATA'),
  ('tcl/encoding/cp869.enc',
   '/System/Library/Frameworks/Tcl.framework/Versions/8.5/Resources/Scripts/encoding/cp869.enc',
   'DATA'),
  ('tcl/msgs/es.msg',
   '/System/Library/Frameworks/Tcl.framework/Versions/8.5/Resources/Scripts/msgs/es.msg',
   'DATA'),
  ('tcl/encoding/iso8859-6.enc',
   '/System/Library/Frameworks/Tcl.framework/Versions/8.5/Resources/Scripts/encoding/iso8859-6.enc',
   'DATA'),
  ('lib2to3/PatternGrammar.txt',
   '/usr/local/Cellar/python3/3.6.4/Frameworks/Python.framework/Versions/3.6/lib/python3.6/lib2to3/PatternGrammar.txt',
   'DATA'),
  ('tcl/msgs/es_ni.msg',
   '/System/Library/Frameworks/Tcl.framework/Versions/8.5/Resources/Scripts/msgs/es_ni.msg',
   'DATA'),
  ('tk/text.tcl',
   '/System/Library/Frameworks/Tk.framework/Versions/8.5/Resources/Scripts/text.tcl',
   'DATA'),
  ('tcl/msgs/kok.msg',
   '/System/Library/Frameworks/Tcl.framework/Versions/8.5/Resources/Scripts/msgs/kok.msg',
   'DATA'),
  ('lib2to3/PatternGrammar3.6.4.final.0.pickle',
   '/usr/local/Cellar/python3/3.6.4/Frameworks/Python.framework/Versions/3.6/lib/python3.6/lib2to3/PatternGrammar3.6.4.final.0.pickle',
   'DATA'),
  ('tcl/msgs/en_ph.msg',
   '/System/Library/Frameworks/Tcl.framework/Versions/8.5/Resources/Scripts/msgs/en_ph.msg',
   'DATA'),
  ('tcl/encoding/symbol.enc',
   '/System/Library/Frameworks/Tcl.framework/Versions/8.5/Resources/Scripts/encoding/symbol.enc',
   'DATA'),
  ('tcl/msgs/hi_in.msg',
   '/System/Library/Frameworks/Tcl.framework/Versions/8.5/Resources/Scripts/msgs/hi_in.msg',
   'DATA'),
  ('tcl/msgs/sh.msg',
   '/System/Library/Frameworks/Tcl.framework/Versions/8.5/Resources/Scripts/msgs/sh.msg',
   'DATA'),
  ('tcl/msgs/eo.msg',
   '/System/Library/Frameworks/Tcl.framework/Versions/8.5/Resources/Scripts/msgs/eo.msg',
   'DATA'),
  ('tk/unsupported.tcl',
   '/System/Library/Frameworks/Tk.framework/Versions/8.5/Resources/Scripts/unsupported.tcl',
   'DATA'),
  ('tcl/encoding/macRomania.enc',
   '/System/Library/Frameworks/Tcl.framework/Versions/8.5/Resources/Scripts/encoding/macRomania.enc',
   'DATA'),
  ('tcl/msgs/zh_tw.msg',
   '/System/Library/Frameworks/Tcl.framework/Versions/8.5/Resources/Scripts/msgs/zh_tw.msg',
   'DATA'),
  ('tcl/encoding/macRoman.enc',
   '/System/Library/Frameworks/Tcl.framework/Versions/8.5/Resources/Scripts/encoding/macRoman.enc',
   'DATA')],)
