('data',
 'data',
 [],
 'DATA',
 [('data/dont_stop_the_music.ogg', 'data/dont_stop_the_music.ogg', 'DATA'),
  ('data/OpenSans-Regular.ttf', 'data/OpenSans-Regular.ttf', 'DATA'),
  ('data/pneumatic_drill.ogg', 'data/pneumatic_drill.ogg', 'DATA')])
